<?xml version="1.0" ?><svg cb-auto-time="03/31/2020 16:39:49" cb-classname="ControlFunction" cb-create-time="03/17/2017" cb-drop-id="1" cb-filename="Z:\OVATION\NET0\UNIT0\CONTROLFUNCTIONS\0023.svg" cb-function-id="0023" cb-key="152551123424" cb-modified-timestamp="1589376036" cb-modify-id="00000002" cb-path="Z:/OVATION/NET0/UNIT0/CONTROLFUNCTIONS" cb-revision="A" cb-sheet-number="S11046" cb-sheet-title="MOV-TEST-TQ" cb-snap-grid="10" cb-task-id="1" height="3522" id="1" width="5450" xmlns="http://www.w3.org/2000/svg">
<style cb-classname="EntityStyle" id="2" type="text/css">
	.algorithm { fill: white; stroke: black; stroke-width: 3 }
	.algorithm-function { fill: black; stroke: none }
	.algorithm-functionline { fill: none; stroke: black; stroke-linecap: round; stroke-width: 3 }
	.algorithm-name { fill: black; stroke: none }
	.algorithm-nameline { fill: none; stroke: black; stroke-linecap: round; stroke-width: 3 }
	.algorithm-sequence { fill: black; stroke: none; visibility: hidden }
	.algorithm-sequenceline { fill: none; stroke: black; stroke-linecap: round; stroke-width: 3; visibility: hidden }
	.algorithmline { fill: none; stroke: black; stroke-linecap: round; stroke-width: 3 }
	.annotation { fill: black; stroke: none }
	.annotationline { fill: none; stroke: black; stroke-linecap: round; stroke-width: 3 }
	.frame { fill: black; stroke: none }
	.frameline { fill: none; stroke: black; stroke-linecap: round; stroke-width: 3 }
	.signal { fill: black; stroke: none }
	.signalline { fill: none; stroke: black; stroke-linecap: round; stroke-width: 3 }
	text.algorithm { fill: black; font-family: Arial; font-size: 22; stroke: none }
	text.algorithm-function { fill: black; font-family: Arial; font-size: 22; stroke: none }
	text.algorithm-name { fill: black; font-family: Arial; font-size: 22; stroke: none }
	text.algorithm-sequence { fill: black; font-family: Arial; font-size: 22; stroke: none; visibility: hidden }
	text.annotation { fill: black; font-family: Arial; font-size: 22; stroke: none }
	text.frame { fill: black; font-family: Arial; font-size: 18; stroke: none }
	text.signal { fill: black; font-family: Arial; font-size: 12; stroke: none }
</style>
<g cb-classname="NamedObject" cb-objectname="Comments" id="3"/>
<g cb-classname="AlgorithmContainer" cb-objectname="Algorithms" id="4">
<g cb-alg-w5x="MOV-YZ02" cb-alg-wOjE="NO" cb-algorithm-id="002" cb-classname="ExternalPointInterface" cb-function-name="INPUT" id="2ia">
<ellipse cb-classname="GraphicEllipseEntity" class="algorithm" cx="670" cy="340" id="2ih" rx="40" ry="40"/>
<rect cb-classname="GraphicRectangleEntity" class="algorithm" height="80" id="2im" width="30" x="600" y="300"/>
<line cb-classname="GraphicLineEntity" class="algorithm" id="2iD" x1="600" x2="630" y1="340" y2="340"/>
<g cb-classname="ControlPin" cb-pin-name="df-jff-Rus" id="2i6">
<line cb-classname="GraphicLineEntity" class="signalline" id="2wB" x1="710" x2="1080" y1="340" y2="340"/>
<g cb-classname="SignalSegment" id="2wT">
<line cb-classname="GraphicLineEntity" class="signalline" id="2wp" stroke="#1e12bf" stroke-dasharray="5,4" x1="1080" x2="1780" y1="340" y2="340"/>
<g cb-classname="SignalConnection" cb-graphic-line="$272$" cb-input-pin="$xm1$" id="2wA"/>
</g>
</g>
<g cb-classname="PointStatusIndicator" cb-indicator-type="Highway" cb-source="7c-CWl-yI8" id="2wN" visibility="hidden">
<line cb-classname="GraphicLineEntity" class="algorithmline" id="2wa" x1="630" x2="670" y1="340" y2="300"/>
<line cb-classname="GraphicLineEntity" class="algorithmline" id="2wh" x1="670" x2="710" y1="300" y2="340"/>
<line cb-classname="GraphicLineEntity" class="algorithmline" id="2wm" x1="710" x2="670" y1="340" y2="380"/>
<line cb-classname="GraphicLineEntity" class="algorithmline" id="2wD" x1="670" x2="630" y1="380" y2="340"/>
</g>
<g cb-classname="PointStatusIndicator" cb-indicator-type="hardware" cb-source="s6-VmQ-12O" id="2w6" visibility="hidden">
<text cb-classname="GraphicTextEntity" class="algorithm" fill="#000000" font-family="arial" font-size="20" id="2CB" x="660" y="350">
H
</text>
</g>
<g cb-classname="PointStatusIndicator" cb-indicator-type="alarm" cb-source="Qo-OmV-HP1" id="2CT" visibility="hidden">
<text cb-classname="GraphicTextEntity" class="algorithm" fill="#000000" font-family="arial" font-size="20" id="2Cp" x="607" y="329">
A
</text>
</g>
<g cb-classname="PointStatusIndicator" cb-indicator-type="ingraphic" cb-source="1c-PGs-okG" id="2CA" visibility="hidden">
<text cb-classname="GraphicTextEntity" class="algorithm" fill="#000000" font-family="Arial" font-size="20" id="2CN" x="605" y="369">
G
</text>
</g>
<g baseline-shift="-100%" cb-anchor-x="130" cb-anchor-y="300" cb-classname="PointDescription" cb-content="extended" cb-labeled="false" cb-max-width="460" cb-source="Bs-9DU-4jt" class="algorithm" font-style="normal" id="2Ca" text-anchor="start">
<text baseline-shift="-100%" cb-classname="GraphicTextEntity" class="algorithm" id="2Ch" text-anchor="start" x="130" y="300">
TEST MOV
</text>
</g>
<g cb-classname="DynamicText" cb-labeled="false" cb-pin-name="SS4" cb-source="7c-CWl-yI8" class="algorithm" id="2Cm" text-anchor="start">
<text baseline-shift="-100%" cb-classname="GraphicTextEntity" class="algorithm" fill="black" font-family="arial" font-size="20" font-style="normal" font-weight="normal" id="2CD" text-anchor="start" text-decoration="normal" x="715" y="302"/>
</g>
<g baseline-shift="-100%" cb-anchor-x="730" cb-anchor-y="340" cb-classname="PointReferences" cb-max-width="350" cb-originator="true" cb-source="6V-gRE-57W" class="signal" id="2C6" text-anchor="start">
<text baseline-shift="-100%" cb-classname="GraphicTextEntity" class="algorithm" id="2KB" text-anchor="start" x="730" y="340">
1/S11045
</text>
</g>
</g>
<g cb-alg-w5x="MOV-YZ01" cb-alg-wOjE="NO" cb-algorithm-id="001" cb-classname="ExternalPointInterface" cb-function-name="INPUT" id="2KT">
<ellipse cb-classname="GraphicEllipseEntity" class="algorithm" cx="670" cy="580" id="2Kp" rx="40" ry="40"/>
<rect cb-classname="GraphicRectangleEntity" class="algorithm" height="80" id="2KA" width="30" x="600" y="540"/>
<line cb-classname="GraphicLineEntity" class="algorithm" id="2KN" x1="600" x2="630" y1="580" y2="580"/>
<g cb-classname="ControlPin" cb-pin-name="df-jff-Rus" id="2Ka">
<line cb-classname="GraphicLineEntity" class="signalline" id="2Kh" x1="710" x2="1080" y1="580" y2="580"/>
<g cb-classname="SignalSegment" id="2Km">
<g cb-classname="SignalConnection" cb-graphic-line="$299$" cb-input-pin="$GVD$" id="2KD"/>
<line cb-classname="GraphicLineEntity" class="signalline" id="2K6" stroke="#1e12bf" stroke-dasharray="5,4" x1="1080" x2="1780" y1="580" y2="580"/>
</g>
</g>
<g cb-classname="PointStatusIndicator" cb-indicator-type="Highway" cb-source="7c-CWl-yI8" id="3UB" visibility="hidden">
<line cb-classname="GraphicLineEntity" class="algorithmline" id="3UT" x1="630" x2="670" y1="580" y2="540"/>
<line cb-classname="GraphicLineEntity" class="algorithmline" id="3Up" x1="670" x2="710" y1="540" y2="580"/>
<line cb-classname="GraphicLineEntity" class="algorithmline" id="3UA" x1="710" x2="670" y1="580" y2="620"/>
<line cb-classname="GraphicLineEntity" class="algorithmline" id="3UN" x1="670" x2="630" y1="620" y2="580"/>
</g>
<g cb-classname="PointStatusIndicator" cb-indicator-type="hardware" cb-source="s6-VmQ-12O" id="3Ua" visibility="hidden">
<text cb-classname="GraphicTextEntity" class="algorithm" fill="#000000" font-family="arial" font-size="20" id="3Uh" x="660" y="590">
H
</text>
</g>
<g cb-classname="PointStatusIndicator" cb-indicator-type="alarm" cb-source="Qo-OmV-HP1" id="3Um" visibility="hidden">
<text cb-classname="GraphicTextEntity" class="algorithm" fill="#000000" font-family="arial" font-size="20" id="3UD" x="607" y="569">
A
</text>
</g>
<g cb-classname="PointStatusIndicator" cb-indicator-type="ingraphic" cb-source="1c-PGs-okG" id="3U6" visibility="hidden">
<text cb-classname="GraphicTextEntity" class="algorithm" fill="#000000" font-family="Arial" font-size="20" id="3NB" x="605" y="609">
G
</text>
</g>
<g baseline-shift="-100%" cb-anchor-x="130" cb-anchor-y="540" cb-classname="PointDescription" cb-content="extended" cb-labeled="false" cb-max-width="460" cb-source="Bs-9DU-4jt" class="algorithm" font-style="normal" id="3NT" text-anchor="start">
<text baseline-shift="-100%" cb-classname="GraphicTextEntity" class="algorithm" id="3Np" text-anchor="start" x="130" y="540">
TEST MOV
</text>
</g>
<g cb-classname="DynamicText" cb-labeled="false" cb-pin-name="SS4" cb-source="7c-CWl-yI8" class="algorithm" id="3NA" text-anchor="start">
<text baseline-shift="-100%" cb-classname="GraphicTextEntity" class="algorithm" fill="black" font-family="arial" font-size="20" font-style="normal" font-weight="normal" id="3NN" text-anchor="start" text-decoration="normal" x="715" y="542"/>
</g>
<g baseline-shift="-100%" cb-anchor-x="730" cb-anchor-y="580" cb-classname="PointReferences" cb-max-width="350" cb-originator="true" cb-source="6V-gRE-57W" class="signal" id="3Na" text-anchor="start">
<text baseline-shift="-100%" cb-classname="GraphicTextEntity" class="algorithm" id="3Nh" text-anchor="start" x="730" y="580">
1/S11045
</text>
</g>
</g>
<g cb-alg-w5x="MOV-XG02" cb-alg-wOjE="NO" cb-algorithm-id="008" cb-classname="ExternalPointInterface" cb-function-name="INPUT" id="3Nm">
<ellipse cb-classname="GraphicEllipseEntity" class="algorithm" cx="670" cy="420" id="3ND" rx="40" ry="40"/>
<rect cb-classname="GraphicRectangleEntity" class="algorithm" height="80" id="3N6" width="30" x="600" y="380"/>
<line cb-classname="GraphicLineEntity" class="algorithm" id="3DB" x1="600" x2="630" y1="420" y2="420"/>
<g cb-classname="ControlPin" cb-pin-name="df-jff-Rus" id="3DT">
<line cb-classname="GraphicLineEntity" class="signalline" id="3Dp" x1="710" x2="1080" y1="420" y2="420"/>
<g cb-classname="SignalSegment" id="3DA">
<g cb-classname="SignalConnection" cb-graphic-line="$325$" cb-input-pin="$GVa$" id="3DN"/>
<line cb-classname="GraphicLineEntity" class="signalline" id="3Da" stroke="#1e12bf" stroke-dasharray="5,4" x1="1080" x2="1780" y1="420" y2="420"/>
</g>
</g>
<g cb-classname="PointStatusIndicator" cb-indicator-type="Highway" cb-source="7c-CWl-yI8" id="3Dh" visibility="hidden">
<line cb-classname="GraphicLineEntity" class="algorithmline" id="3Dm" x1="630" x2="670" y1="420" y2="380"/>
<line cb-classname="GraphicLineEntity" class="algorithmline" id="3DD" x1="670" x2="710" y1="380" y2="420"/>
<line cb-classname="GraphicLineEntity" class="algorithmline" id="3D6" x1="710" x2="670" y1="420" y2="460"/>
<line cb-classname="GraphicLineEntity" class="algorithmline" id="35B" x1="670" x2="630" y1="460" y2="420"/>
</g>
<g cb-classname="PointStatusIndicator" cb-indicator-type="hardware" cb-source="s6-VmQ-12O" id="35T" visibility="hidden">
<text cb-classname="GraphicTextEntity" class="algorithm" fill="#000000" font-family="arial" font-size="20" id="35p" x="660" y="430">
H
</text>
</g>
<g cb-classname="PointStatusIndicator" cb-indicator-type="alarm" cb-source="Qo-OmV-HP1" id="35A" visibility="hidden">
<text cb-classname="GraphicTextEntity" class="algorithm" fill="#000000" font-family="arial" font-size="20" id="35N" x="607" y="409">
A
</text>
</g>
<g cb-classname="PointStatusIndicator" cb-indicator-type="ingraphic" cb-source="1c-PGs-okG" id="35a" visibility="visible">
<text cb-classname="GraphicTextEntity" class="algorithm" fill="#000000" font-family="Arial" font-size="20" id="35h" x="605" y="449">
G
</text>
</g>
<g baseline-shift="-100%" cb-anchor-x="130" cb-anchor-y="380" cb-classname="PointDescription" cb-content="extended" cb-labeled="false" cb-max-width="460" cb-source="Bs-9DU-4jt" class="algorithm" font-style="normal" id="35m" text-anchor="start">
<text baseline-shift="-100%" cb-classname="GraphicTextEntity" class="algorithm" id="35D" text-anchor="start" x="130" y="380">
TEST MOV
</text>
</g>
<g cb-classname="DynamicText" cb-labeled="false" cb-pin-name="SS4" cb-source="7c-CWl-yI8" class="algorithm" id="356" text-anchor="start">
<text baseline-shift="-100%" cb-classname="GraphicTextEntity" class="algorithm" fill="black" font-family="arial" font-size="20" font-style="normal" font-weight="normal" id="3xB" text-anchor="start" text-decoration="normal" x="715" y="382"/>
</g>
<g baseline-shift="-100%" cb-anchor-x="730" cb-anchor-y="420" cb-classname="PointReferences" cb-max-width="350" cb-originator="true" cb-source="6V-gRE-57W" class="signal" id="3xT" text-anchor="start">
<text baseline-shift="-100%" cb-classname="GraphicTextEntity" class="algorithm" id="3xp" text-anchor="start" x="730" y="420">
1/S11041
</text>
</g>
</g>
<g cb-alg-w5x="MOV-XG54" cb-alg-wOjE="NO" cb-algorithm-id="009" cb-classname="ExternalPointInterface" cb-function-name="INPUT" id="3xA">
<ellipse cb-classname="GraphicEllipseEntity" class="algorithm" cx="670" cy="500" id="3xN" rx="40" ry="40"/>
<rect cb-classname="GraphicRectangleEntity" class="algorithm" height="80" id="3xa" width="30" x="600" y="460"/>
<line cb-classname="GraphicLineEntity" class="algorithm" id="3xh" x1="600" x2="630" y1="500" y2="500"/>
<g cb-classname="ControlPin" cb-pin-name="df-jff-Rus" id="3xm">
<line cb-classname="GraphicLineEntity" class="signalline" id="3xD" x1="710" x2="1080" y1="500" y2="500"/>
<g cb-classname="SignalSegment" id="6ia">
<g cb-classname="SignalConnection" cb-graphic-line="$668$" cb-input-pin="$psm$" id="6i6"/>
<line cb-classname="GraphicLineEntity" class="signalline" id="6iD" stroke="#1e12bf" stroke-dasharray="5,4" x1="1080" x2="1780" y1="500" y2="500"/>
</g>
</g>
<g cb-classname="PointStatusIndicator" cb-indicator-type="Highway" cb-source="7c-CWl-yI8" id="3fp" visibility="hidden">
<line cb-classname="GraphicLineEntity" class="algorithmline" id="3fA" x1="630" x2="670" y1="500" y2="460"/>
<line cb-classname="GraphicLineEntity" class="algorithmline" id="3fN" x1="670" x2="710" y1="460" y2="500"/>
<line cb-classname="GraphicLineEntity" class="algorithmline" id="3fa" x1="710" x2="670" y1="500" y2="540"/>
<line cb-classname="GraphicLineEntity" class="algorithmline" id="3fh" x1="670" x2="630" y1="540" y2="500"/>
</g>
<g cb-classname="PointStatusIndicator" cb-indicator-type="hardware" cb-source="s6-VmQ-12O" id="3fm" visibility="hidden">
<text cb-classname="GraphicTextEntity" class="algorithm" fill="#000000" font-family="arial" font-size="20" id="3fD" x="660" y="510">
H
</text>
</g>
<g cb-classname="PointStatusIndicator" cb-indicator-type="alarm" cb-source="Qo-OmV-HP1" id="3f6" visibility="hidden">
<text cb-classname="GraphicTextEntity" class="algorithm" fill="#000000" font-family="arial" font-size="20" id="3iB" x="607" y="489">
A
</text>
</g>
<g cb-classname="PointStatusIndicator" cb-indicator-type="ingraphic" cb-source="1c-PGs-okG" id="3iT" visibility="visible">
<text cb-classname="GraphicTextEntity" class="algorithm" fill="#000000" font-family="Arial" font-size="20" id="3ip" x="605" y="529">
G
</text>
</g>
<g baseline-shift="-100%" cb-anchor-x="130" cb-anchor-y="460" cb-classname="PointDescription" cb-content="extended" cb-labeled="false" cb-max-width="460" cb-source="Bs-9DU-4jt" class="algorithm" font-style="normal" id="3iA" text-anchor="start">
<text baseline-shift="-100%" cb-classname="GraphicTextEntity" class="algorithm" id="3iN" text-anchor="start" x="130" y="460">
TEST MOV
</text>
</g>
<g cb-classname="DynamicText" cb-labeled="false" cb-pin-name="W38" cb-source="wk-po9-ix0" class="algorithm" id="3ih" text-anchor="start">
<text baseline-shift="-100%" cb-classname="GraphicTextEntity" class="algorithm" fill="black" font-family="arial" font-size="20" font-style="normal" font-weight="normal" id="3im" text-anchor="start" text-decoration="normal" x="715" y="462"/>
</g>
<g baseline-shift="-100%" cb-anchor-x="730" cb-anchor-y="500" cb-classname="PointReferences" cb-max-width="350" cb-originator="true" cb-source="q8-apv-FpA" class="signal" id="3iD" text-anchor="start">
<text baseline-shift="-100%" cb-classname="GraphicTextEntity" class="algorithm" id="3i6" text-anchor="start" x="730" y="500">
1/S11041
</text>
</g>
</g>
<g cb-alg-MGLv="NO" cb-alg-Mwm="MOV-XG01" cb-algorithm-id="00A" cb-classname="ExternalPointInterface" cb-function-name="INPUT" id="3wB">
<ellipse cb-classname="GraphicEllipseEntity" class="algorithm" cx="670" cy="660" id="3wT" rx="40" ry="40"/>
<rect cb-classname="GraphicRectangleEntity" class="algorithm" height="80" id="3wp" width="30" x="600" y="620"/>
<line cb-classname="GraphicLineEntity" class="algorithm" id="3wA" x1="600" x2="630" y1="660" y2="660"/>
<g cb-classname="ControlPin" cb-pin-name="1c-PGs-okG" id="3wN">
<line cb-classname="GraphicLineEntity" class="signalline" id="3wa" x1="710" x2="1080" y1="660" y2="660"/>
<g cb-classname="SignalSegment" id="3wh">
<g cb-classname="SignalConnection" cb-graphic-line="$378$" cb-input-pin="$xa1$" id="3wm"/>
<line cb-classname="GraphicLineEntity" class="signalline" id="3wD" stroke="#1e12bf" stroke-dasharray="5,4" x1="1080" x2="1780" y1="660" y2="660"/>
</g>
</g>
<g cb-classname="PointStatusIndicator" cb-indicator-type="Highway" cb-source="wk-po9-ix0" id="3w6" visibility="hidden">
<line cb-classname="GraphicLineEntity" class="algorithmline" id="3CB" x1="630" x2="670" y1="660" y2="620"/>
<line cb-classname="GraphicLineEntity" class="algorithmline" id="3CT" x1="670" x2="710" y1="620" y2="660"/>
<line cb-classname="GraphicLineEntity" class="algorithmline" id="3Cp" x1="710" x2="670" y1="660" y2="700"/>
<line cb-classname="GraphicLineEntity" class="algorithmline" id="3CA" x1="670" x2="630" y1="700" y2="660"/>
</g>
<g cb-classname="PointStatusIndicator" cb-indicator-type="hardware" cb-source="Wt-kL5-I12" id="3CN" visibility="hidden">
<text cb-classname="GraphicTextEntity" class="algorithm" fill="#000000" font-family="arial" font-size="20" id="3Ca" x="660" y="670">
H
</text>
</g>
<g cb-classname="PointStatusIndicator" cb-indicator-type="alarm" cb-source="df-jff-Rus" id="3Ch" visibility="hidden">
<text cb-classname="GraphicTextEntity" class="algorithm" fill="#000000" font-family="arial" font-size="20" id="3Cm" x="607" y="649">
A
</text>
</g>
<g cb-classname="PointStatusIndicator" cb-indicator-type="ingraphic" cb-source="sZ-udq-Yoh" id="3CD" visibility="visible">
<text cb-classname="GraphicTextEntity" class="algorithm" fill="#000000" font-family="Arial" font-size="20" id="3C6" x="605" y="689">
G
</text>
</g>
<g baseline-shift="-100%" cb-anchor-x="130" cb-anchor-y="620" cb-classname="PointDescription" cb-content="extended" cb-labeled="false" cb-max-width="460" cb-source="cJ-y13-nap" class="algorithm" font-style="normal" id="3KB" text-anchor="start">
<text baseline-shift="-100%" cb-classname="GraphicTextEntity" class="algorithm" id="3KT" text-anchor="start" x="130" y="620">
TEST MOV
</text>
</g>
<g cb-classname="DynamicText" cb-labeled="false" cb-pin-name="W38" cb-source="wk-po9-ix0" class="algorithm" id="3Kp" text-anchor="start">
<text baseline-shift="-100%" cb-classname="GraphicTextEntity" class="algorithm" fill="black" font-family="arial" font-size="20" font-style="normal" font-weight="normal" id="3KA" text-anchor="start" text-decoration="normal" x="715" y="622"/>
</g>
<g baseline-shift="-100%" cb-anchor-x="730" cb-anchor-y="660" cb-classname="PointReferences" cb-max-width="350" cb-originator="true" cb-source="q8-apv-FpA" class="signal" id="3KN" text-anchor="start">
<text baseline-shift="-100%" cb-classname="GraphicTextEntity" class="algorithm" id="3Ka" text-anchor="start" x="730" y="660">
1/S11041
</text>
</g>
</g>
<g cb-alg-MGLv="NO" cb-alg-Mwm="MOV-XG53" cb-algorithm-id="00B" cb-classname="ExternalPointInterface" cb-function-name="INPUT" id="3Kh">
<ellipse cb-classname="GraphicEllipseEntity" class="algorithm" cx="670" cy="740" id="3Km" rx="40" ry="40"/>
<rect cb-classname="GraphicRectangleEntity" class="algorithm" height="80" id="3KD" width="30" x="600" y="700"/>
<line cb-classname="GraphicLineEntity" class="algorithm" id="3K6" x1="600" x2="630" y1="740" y2="740"/>
<g cb-classname="ControlPin" cb-pin-name="1c-PGs-okG" id="4UB">
<line cb-classname="GraphicLineEntity" class="signalline" id="4UT" x1="710" x2="1080" y1="740" y2="740"/>
<g cb-classname="SignalSegment" id="6wB">
<g cb-classname="SignalConnection" cb-graphic-line="$673$" cb-input-pin="$foQ$" id="6wN"/>
<line cb-classname="GraphicLineEntity" class="signalline" id="6wA" stroke="#1e12bf" stroke-dasharray="5,4" x1="1080" x2="1780" y1="740" y2="740"/>
</g>
</g>
<g cb-classname="PointStatusIndicator" cb-indicator-type="Highway" cb-source="wk-po9-ix0" id="4Ua" visibility="hidden">
<line cb-classname="GraphicLineEntity" class="algorithmline" id="4Uh" x1="630" x2="670" y1="740" y2="700"/>
<line cb-classname="GraphicLineEntity" class="algorithmline" id="4Um" x1="670" x2="710" y1="700" y2="740"/>
<line cb-classname="GraphicLineEntity" class="algorithmline" id="4UD" x1="710" x2="670" y1="740" y2="780"/>
<line cb-classname="GraphicLineEntity" class="algorithmline" id="4U6" x1="670" x2="630" y1="780" y2="740"/>
</g>
<g cb-classname="PointStatusIndicator" cb-indicator-type="hardware" cb-source="Wt-kL5-I12" id="4NB" visibility="hidden">
<text cb-classname="GraphicTextEntity" class="algorithm" fill="#000000" font-family="arial" font-size="20" id="4NT" x="660" y="750">
H
</text>
</g>
<g cb-classname="PointStatusIndicator" cb-indicator-type="alarm" cb-source="df-jff-Rus" id="4Np" visibility="hidden">
<text cb-classname="GraphicTextEntity" class="algorithm" fill="#000000" font-family="arial" font-size="20" id="4NA" x="607" y="729">
A
</text>
</g>
<g cb-classname="PointStatusIndicator" cb-indicator-type="ingraphic" cb-source="sZ-udq-Yoh" id="4NN" visibility="visible">
<text cb-classname="GraphicTextEntity" class="algorithm" fill="#000000" font-family="Arial" font-size="20" id="4Na" x="605" y="769">
G
</text>
</g>
<g baseline-shift="-100%" cb-anchor-x="130" cb-anchor-y="700" cb-classname="PointDescription" cb-content="extended" cb-labeled="false" cb-max-width="460" cb-source="cJ-y13-nap" class="algorithm" font-style="normal" id="4Nh" text-anchor="start">
<text baseline-shift="-100%" cb-classname="GraphicTextEntity" class="algorithm" id="4Nm" text-anchor="start" x="130" y="700">
TEST MOV
</text>
</g>
<g cb-classname="DynamicText" cb-labeled="false" cb-pin-name="fOV" cb-source="6V-gRE-57W" class="algorithm" id="4N6" text-anchor="start">
<text baseline-shift="-100%" cb-classname="GraphicTextEntity" class="algorithm" fill="black" font-family="arial" font-size="20" font-style="normal" font-weight="normal" id="4DB" text-anchor="start" text-decoration="normal" x="715" y="702"/>
</g>
<g baseline-shift="-100%" cb-anchor-x="730" cb-anchor-y="740" cb-classname="PointReferences" cb-max-width="350" cb-originator="true" cb-source="HE-Fxo-IFr" class="signal" id="4DT" text-anchor="start">
<text baseline-shift="-100%" cb-classname="GraphicTextEntity" class="algorithm" id="4Dp" text-anchor="start" x="730" y="740">
1/S11041
</text>
</g>
</g>
<g cb-alg-nCro="NO" cb-alg-nap="MOV-XK99" cb-algorithm-id="00C" cb-classname="ExternalPointInterface" cb-function-name="INPUT" id="4DA">
<ellipse cb-classname="GraphicEllipseEntity" class="algorithm" cx="670" cy="820" id="4DN" rx="40" ry="40"/>
<rect cb-classname="GraphicRectangleEntity" class="algorithm" height="80" id="4Da" width="30" x="600" y="780"/>
<line cb-classname="GraphicLineEntity" class="algorithm" id="4Dh" x1="600" x2="630" y1="820" y2="820"/>
<g cb-classname="ControlPin" cb-pin-name="sZ-udq-Yoh" id="4Dm">
<line cb-classname="GraphicLineEntity" class="signalline" id="4DD" x1="710" x2="1080" y1="820" y2="820"/>
<g cb-classname="SignalSegment" id="4D6">
<g cb-classname="SignalConnection" cb-graphic-line="$431$" cb-input-pin="$Nzi$" id="45B"/>
<line cb-classname="GraphicLineEntity" class="signalline" id="45T" stroke="#1e12bf" stroke-dasharray="5,4" x1="1080" x2="1780" y1="820" y2="820"/>
</g>
</g>
<g cb-classname="PointStatusIndicator" cb-indicator-type="Highway" cb-source="6V-gRE-57W" id="45p" visibility="hidden">
<line cb-classname="GraphicLineEntity" class="algorithmline" id="45A" x1="630" x2="670" y1="820" y2="780"/>
<line cb-classname="GraphicLineEntity" class="algorithmline" id="45N" x1="670" x2="710" y1="780" y2="820"/>
<line cb-classname="GraphicLineEntity" class="algorithmline" id="45a" x1="710" x2="670" y1="820" y2="860"/>
<line cb-classname="GraphicLineEntity" class="algorithmline" id="45h" x1="670" x2="630" y1="860" y2="820"/>
</g>
<g cb-classname="PointStatusIndicator" cb-indicator-type="hardware" cb-source="Qo-OmV-HP1" id="45m" visibility="hidden">
<text cb-classname="GraphicTextEntity" class="algorithm" fill="#000000" font-family="arial" font-size="20" id="45D" x="660" y="830">
H
</text>
</g>
<g cb-classname="PointStatusIndicator" cb-indicator-type="alarm" cb-source="1c-PGs-okG" id="456" visibility="hidden">
<text cb-classname="GraphicTextEntity" class="algorithm" fill="#000000" font-family="arial" font-size="20" id="4xB" x="607" y="809">
A
</text>
</g>
<g cb-classname="PointStatusIndicator" cb-indicator-type="ingraphic" cb-source="Bs-9DU-4jt" id="4xT" visibility="hidden">
<text cb-classname="GraphicTextEntity" class="algorithm" fill="#000000" font-family="Arial" font-size="20" id="4xp" x="605" y="849">
G
</text>
</g>
<g baseline-shift="-100%" cb-anchor-x="130" cb-anchor-y="780" cb-classname="PointDescription" cb-content="extended" cb-labeled="false" cb-max-width="460" cb-source="7c-CWl-yI8" class="algorithm" font-style="normal" id="4xA" text-anchor="start">
<text baseline-shift="-100%" cb-classname="GraphicTextEntity" class="algorithm" id="4xN" text-anchor="start" x="130" y="780">
TEST MOV
</text>
</g>
<g cb-classname="DynamicText" cb-labeled="false" cb-pin-name="fOV" cb-source="6V-gRE-57W" class="algorithm" id="4xa" text-anchor="start">
<text baseline-shift="-100%" cb-classname="GraphicTextEntity" class="algorithm" fill="black" font-family="arial" font-size="20" font-style="normal" font-weight="normal" id="4xh" text-anchor="start" text-decoration="normal" x="715" y="782"/>
</g>
<g baseline-shift="-100%" cb-anchor-x="730" cb-anchor-y="820" cb-classname="PointReferences" cb-max-width="350" cb-originator="true" cb-source="HE-Fxo-IFr" class="signal" id="4xm" text-anchor="start">
<text baseline-shift="-100%" cb-classname="GraphicTextEntity" class="algorithm" id="4xD" text-anchor="start" x="730" y="820">
1/S11045
</text>
</g>
</g>
<g cb-alg-GAp="$423$cb-alg-out$" cb-alg-RAd="$317$cb-alg-out$" cb-alg-RAi="$370$cb-alg-out$" cb-alg-TtU2="MOV-YB02" cb-alg-TtUE="MOV-YB01" cb-alg-UTU2="MOV-XK02" cb-alg-UTUE="MOV-XK01" cb-alg-WgNVnD-kwxU="65" cb-alg-WgNVnD-uq="DVALGEN" cb-alg-WgUShD-O9Du="1" cb-alg-WgUShD-kwxU="65" cb-alg-WgUShD-uq="DVALGEN" cb-alg-Wpg="$265$cb-alg-out$" cb-alg-iycl="1" cb-alg-n0u="$291$cb-alg-out$" cb-alg-xAd="$343$cb-alg-out$" cb-alg-xAi="$396$cb-alg-out$" cb-algorithm-id="003" cb-classname="ControlMacroReference" cb-function-name="OUT-TRQLIM" cb-macro-crc="4940" cb-modify-id="00000001" id="4x6">
<rect cb-classname="GraphicRectangleEntity" class="annotation" fill="white" height="500" id="4fB" stroke="black" width="60" x="1800" y="330"/>
<text baseline-shift="0%" cb-classname="GraphicTextEntity" class="annotation" fill="#000000" font-family="MS Shell Dlg 2" font-size="18" id="4fT" text-anchor="middle" x="1830" y="360">
OUT
</text>
<text baseline-shift="0%" cb-classname="GraphicTextEntity" class="annotation" fill="#000000" font-family="MS Shell Dlg 2" font-size="18" id="4fp" text-anchor="middle" x="1830" y="385">
TRQ
</text>
<text baseline-shift="0%" cb-classname="GraphicTextEntity" class="annotation" fill="#000000" font-family="MS Shell Dlg 2" font-size="18" id="4fA" text-anchor="middle" x="1830" y="410">
LIM
</text>
<g cb-classname="ControlPin" cb-pin-name="Bs-9DU-2S8" id="4fN">
<line cb-classname="GraphicLineEntity" class="signalline" id="4fa" x1="1780" x2="1800" y1="660" y2="660"/>
<polygon cb-classname="GraphicPolygonEntity" class="signal" id="4fh" points="1800,660 1789,654 1789,665"/>
<g cb-classname="DynamicText" cb-source="wk-lHB-ukiz" id="4fm">
<text cb-classname="GraphicTextEntity" class="signal" id="4fD" text-anchor="end" x="1785" y="657"/>
</g>
</g>
<g cb-classname="ControlPin" cb-pin-name="q8-apv-zrA" id="4f6">
<line cb-classname="GraphicLineEntity" class="signalline" id="4iB" x1="1780" x2="1800" y1="820" y2="820"/>
<polygon cb-classname="GraphicPolygonEntity" class="signal" id="4iT" points="1800,820 1789,814 1789,825"/>
<g cb-classname="DynamicText" cb-source="Wt-Po4-U9ZB" id="4ip">
<text cb-classname="GraphicTextEntity" class="signal" id="4iA" text-anchor="end" x="1785" y="817"/>
</g>
</g>
<g cb-classname="ControlPin" cb-pin-name="df-jff-RmS" id="4iN">
<line cb-classname="GraphicLineEntity" class="signalline" id="4ia" x1="1780" x2="1800" y1="580" y2="580"/>
<polygon cb-classname="GraphicPolygonEntity" class="signal" id="4ih" points="1800,580 1789,574 1789,585"/>
<g cb-classname="DynamicText" cb-source="Bs-g9k-lgFm" id="4im">
<text cb-classname="GraphicTextEntity" class="signal" id="4iD" text-anchor="end" x="1785" y="577"/>
</g>
</g>
<g cb-classname="ControlPin" cb-pin-name="7c-CWl-pg1" id="4i6">
<line cb-classname="GraphicLineEntity" class="signalline" id="4wB" x1="1780" x2="1800" y1="420" y2="420"/>
<polygon cb-classname="GraphicPolygonEntity" class="signal" id="4wT" points="1800,420 1789,414 1789,425"/>
<g cb-classname="DynamicText" cb-source="q8-mLu-Rjeb" id="4wp">
<text cb-classname="GraphicTextEntity" class="signal" id="4wA" text-anchor="end" x="1785" y="417"/>
</g>
</g>
<g cb-classname="ControlPin" cb-pin-name="s6-VmQ-KGS" id="4wN">
<line cb-classname="GraphicLineEntity" class="signalline" id="4wa" x1="1780" x2="1800" y1="340" y2="340"/>
<polygon cb-classname="GraphicPolygonEntity" class="signal" id="4wh" points="1800,340 1789,334 1789,345"/>
<g cb-classname="DynamicText" cb-source="df-t7U-NtVu" id="4wm">
<text cb-classname="GraphicTextEntity" class="signal" id="4wD" text-anchor="end" x="1785" y="337"/>
</g>
</g>
<g cb-classname="ControlPin" cb-pin-name="sZ-udq-sq9" id="4w6">
<line cb-classname="GraphicLineEntity" class="signalline" id="4CB" x1="1780" x2="1800" y1="740" y2="740"/>
<polygon cb-classname="GraphicPolygonEntity" class="signal" id="4CT" points="1800,740 1789,734 1789,745"/>
<g cb-classname="DynamicText" cb-source="7c-3CA-3VG8" id="4Cp">
<text cb-classname="GraphicTextEntity" class="signal" id="4CA" text-anchor="end" x="1785" y="737"/>
</g>
</g>
<g cb-classname="ControlPin" cb-pin-name="6V-gRE-8JB" id="4CN">
<line cb-classname="GraphicLineEntity" class="signalline" id="4Ca" x1="1780" x2="1800" y1="500" y2="500"/>
<polygon cb-classname="GraphicPolygonEntity" class="signal" id="4Ch" points="1800,500 1789,494 1789,505"/>
<g cb-classname="DynamicText" cb-source="s6-XvR-YuWJ" id="4Cm">
<text cb-classname="GraphicTextEntity" class="signal" id="4CD" text-anchor="end" x="1785" y="497"/>
</g>
</g>
<g cb-classname="ControlPin" cb-pin-name="Qo-OmV-2SFJ" id="4C6">
<line cb-classname="GraphicLineEntity" class="signalline" id="4KB" x1="1860" x2="1880" y1="660" y2="660"/>
<g cb-classname="DynamicText" cb-source="1c-2wq-k58Z" id="4KT">
<text cb-classname="GraphicTextEntity" class="signal" id="4Kp" text-anchor="start" x="1874" y="657"/>
</g>
<g cb-classname="SignalSegment" id="4KA">
<g cb-classname="SignalConnection" cb-graphic-line="$495$" cb-input-pin="$f61$" id="4KN"/>
<line cb-classname="GraphicLineEntity" class="signalline" id="4Ka" stroke="#1e12bf" stroke-dasharray="5,4" x1="1880" x2="4340" y1="660" y2="660"/>
</g>
</g>
<g cb-classname="ControlPin" cb-pin-name="wk-po9-ef9D" id="4Kh">
<line cb-classname="GraphicLineEntity" class="signalline" id="4Km" x1="1860" x2="1880" y1="580" y2="580"/>
<g cb-classname="DynamicText" cb-source="q8-mLu-Rjeb" id="4KD">
<text cb-classname="GraphicTextEntity" class="signal" id="4K6" text-anchor="start" x="1874" y="577"/>
</g>
<g cb-classname="SignalSegment" id="5UB">
<g cb-classname="SignalConnection" cb-graphic-line="$502$" cb-input-pin="$6aS$" id="5UT"/>
<line cb-classname="GraphicLineEntity" class="signalline" id="5Up" stroke="#1e12bf" stroke-dasharray="5,4" x1="1880" x2="4340" y1="580" y2="580"/>
</g>
</g>
<g cb-classname="ControlPin" cb-pin-name="df-jff-Iafp" id="5UA">
<line cb-classname="GraphicLineEntity" class="signalline" id="5UN" x1="1860" x2="1880" y1="420" y2="420"/>
<g cb-classname="DynamicText" cb-source="sZ-DwN-SjwE" id="5Ua">
<text cb-classname="GraphicTextEntity" class="signal" id="5Uh" text-anchor="start" x="1874" y="417"/>
</g>
<g cb-classname="SignalSegment" id="5Um">
<g cb-classname="SignalConnection" cb-graphic-line="$509$" cb-input-pin="$a1c$" id="5UD"/>
<line cb-classname="GraphicLineEntity" class="signalline" id="5U6" stroke="#1e12bf" stroke-dasharray="5,4" x1="1880" x2="4340" y1="420" y2="420"/>
</g>
</g>
<g cb-classname="ControlPin" cb-pin-name="6V-gRE-NcMN" id="5NB">
<line cb-classname="GraphicLineEntity" class="signalline" id="5NT" x1="1860" x2="1880" y1="340" y2="340"/>
<g cb-classname="DynamicText" cb-source="HE-0r7-4Pvy" id="5Np">
<text cb-classname="GraphicTextEntity" class="signal" id="5NA" text-anchor="start" x="1874" y="337"/>
</g>
<g cb-classname="SignalSegment" id="5NN">
<g cb-classname="SignalConnection" cb-graphic-line="$516$" cb-input-pin="$Q2U$" id="5Na"/>
<line cb-classname="GraphicLineEntity" class="signalline" id="5Nh" stroke="#1e12bf" stroke-dasharray="5,4" x1="1880" x2="4340" y1="340" y2="340"/>
</g>
</g>
</g>
<g cb-alg-vR="$449$cb-alg-yb02$" cb-algorithm-id="004" cb-classname="ExternalPointInterface" cb-function-name="OUTPUT" id="5Nm">
<ellipse cb-classname="GraphicEllipseEntity" class="algorithm" cx="4750" cy="340" id="5ND" rx="40" ry="40"/>
<rect cb-classname="GraphicRectangleEntity" class="algorithm" height="80" id="5N6" width="30" x="4790" y="300"/>
<line cb-classname="GraphicLineEntity" class="algorithm" id="5DB" x1="4790" x2="4820" y1="340" y2="340"/>
<g cb-classname="ControlPin" cb-pin-name="7c-CWl-Lu" id="5DT">
<line cb-classname="GraphicLineEntity" class="signalline" id="5Dp" x1="4340" x2="4710" y1="340" y2="340"/>
<polygon cb-classname="GraphicPolygonEntity" class="signal" id="5DA" points="4710,340 4699,334 4699,345"/>
</g>
<g cb-classname="PointStatusIndicator" cb-indicator-type="highway" cb-source="q8-apv-o4" id="5DN" visibility="hidden">
<line cb-classname="GraphicLineEntity" class="algorithmline" id="5Da" x1="4710" x2="4750" y1="340" y2="300"/>
<line cb-classname="GraphicLineEntity" class="algorithmline" id="5Dh" x1="4750" x2="4790" y1="300" y2="340"/>
<line cb-classname="GraphicLineEntity" class="algorithmline" id="5Dm" x1="4790" x2="4750" y1="340" y2="380"/>
<line cb-classname="GraphicLineEntity" class="algorithmline" id="5DD" x1="4750" x2="4710" y1="380" y2="340"/>
</g>
<g cb-classname="PointStatusIndicator" cb-indicator-type="hardware" cb-source="df-jff-9k" id="5D6" visibility="hidden">
<text cb-classname="GraphicTextEntity" class="algorithm" fill="#000000" font-family="Arial" font-size="20" id="55B" x="4740" y="350">
H
</text>
</g>
<g cb-classname="PointStatusIndicator" cb-indicator-type="alarm" cb-source="sZ-udq-Hl" id="55T" visibility="hidden">
<text cb-classname="GraphicTextEntity" class="algorithm" fill="#000000" font-family="Arial" font-size="20" id="55p" x="4797" y="368">
A
</text>
</g>
<g cb-classname="PointStatusIndicator" cb-indicator-type="ingraphic" cb-source="cJ-y13-j3" id="55A" visibility="hidden">
<text cb-classname="GraphicTextEntity" class="algorithm" fill="#000000" font-family="Arial" font-size="20" id="55N" x="4796" y="329">
G
</text>
</g>
<g cb-classname="DynamicText" cb-labeled="false" cb-pin-name="fp" cb-source="wk-po9-r7" class="algorithm" id="55a" text-anchor="end">
<text baseline-shift="-100%" cb-classname="GraphicTextEntity" class="algorithm" fill="black" font-family="MS Shell Dlg" font-size="20" font-style="normal" font-weight="normal" id="55h" text-anchor="end" text-decoration="normal" x="4690" y="300"/>
</g>
<g baseline-shift="-100%" cb-anchor-x="4690" cb-anchor-y="340" cb-classname="PointReferences" cb-max-width="400" cb-originator="false" cb-source="q8-apv-o4" class="signal" id="55m" text-anchor="end">
<text baseline-shift="-100%" cb-classname="GraphicTextEntity" class="algorithm" id="55D" text-anchor="end" x="4690" y="340">
1/S11041
</text>
</g>
<g baseline-shift="-100%" cb-anchor-x="4840" cb-anchor-y="300" cb-classname="PointDescription" cb-content="extended" cb-labeled="false" cb-max-width="460" cb-source="s6-VmQ-7U" class="algorithm" id="556" text-anchor="start">
<text baseline-shift="-100%" cb-classname="GraphicTextEntity" class="algorithm" id="5xB" text-anchor="start" x="4840" y="300">
TEST MOV
</text>
</g>
</g>
<g cb-alg-Lu="$449$cb-alg-xk02$" cb-algorithm-id="005" cb-classname="ExternalPointInterface" cb-function-name="OUTPUT" id="5xT">
<ellipse cb-classname="GraphicEllipseEntity" class="algorithm" cx="4750" cy="420" id="5xp" rx="40" ry="40"/>
<rect cb-classname="GraphicRectangleEntity" class="algorithm" height="80" id="5xA" width="30" x="4790" y="380"/>
<line cb-classname="GraphicLineEntity" class="algorithm" id="5xN" x1="4790" x2="4820" y1="420" y2="420"/>
<g cb-classname="ControlPin" cb-pin-name="Bs-9DU-FU" id="5xa">
<line cb-classname="GraphicLineEntity" class="signalline" id="5xh" x1="4340" x2="4710" y1="420" y2="420"/>
<polygon cb-classname="GraphicPolygonEntity" class="signal" id="5xm" points="4710,420 4699,414 4699,425"/>
</g>
<g cb-classname="PointStatusIndicator" cb-indicator-type="highway" cb-source="wk-po9-r7" id="5xD" visibility="hidden">
<line cb-classname="GraphicLineEntity" class="algorithmline" id="5x6" x1="4710" x2="4750" y1="420" y2="380"/>
<line cb-classname="GraphicLineEntity" class="algorithmline" id="5fB" x1="4750" x2="4790" y1="380" y2="420"/>
<line cb-classname="GraphicLineEntity" class="algorithmline" id="5fT" x1="4790" x2="4750" y1="420" y2="460"/>
<line cb-classname="GraphicLineEntity" class="algorithmline" id="5fp" x1="4750" x2="4710" y1="460" y2="420"/>
</g>
<g cb-classname="PointStatusIndicator" cb-indicator-type="hardware" cb-source="Wt-kL5-wq" id="5fA" visibility="hidden">
<text cb-classname="GraphicTextEntity" class="algorithm" fill="#000000" font-family="Arial" font-size="20" id="5fN" x="4740" y="430">
H
</text>
</g>
<g cb-classname="PointStatusIndicator" cb-indicator-type="alarm" cb-source="df-jff-9k" id="5fa" visibility="hidden">
<text cb-classname="GraphicTextEntity" class="algorithm" fill="#000000" font-family="Arial" font-size="20" id="5fh" x="4797" y="448">
A
</text>
</g>
<g cb-classname="PointStatusIndicator" cb-indicator-type="ingraphic" cb-source="sZ-udq-Hl" id="5fm" visibility="hidden">
<text cb-classname="GraphicTextEntity" class="algorithm" fill="#000000" font-family="Arial" font-size="20" id="5fD" x="4796" y="409">
G
</text>
</g>
<g cb-classname="DynamicText" cb-labeled="false" cb-pin-name="Id" cb-source="cJ-y13-j3" class="algorithm" id="5f6" text-anchor="end">
<text baseline-shift="-100%" cb-classname="GraphicTextEntity" class="algorithm" fill="black" font-family="MS Shell Dlg" font-size="20" font-style="normal" font-weight="normal" id="5iB" text-anchor="end" text-decoration="normal" x="4690" y="380"/>
</g>
<g baseline-shift="-100%" cb-anchor-x="4690" cb-anchor-y="420" cb-classname="PointReferences" cb-max-width="400" cb-originator="false" cb-source="wk-po9-r7" class="signal" id="5iT" text-anchor="end">
<text baseline-shift="-100%" cb-classname="GraphicTextEntity" class="algorithm" id="5ip" text-anchor="end" x="4690" y="420">
1/S11045
</text>
</g>
<g baseline-shift="-100%" cb-anchor-x="4840" cb-anchor-y="380" cb-classname="PointDescription" cb-content="extended" cb-labeled="false" cb-max-width="460" cb-source="q8-apv-o4" class="algorithm" id="5iA" text-anchor="start">
<text baseline-shift="-100%" cb-classname="GraphicTextEntity" class="algorithm" id="5iN" text-anchor="start" x="4840" y="380">
TEST MOV
</text>
</g>
</g>
<g cb-alg-j3="$449$cb-alg-yb01$" cb-algorithm-id="006" cb-classname="ExternalPointInterface" cb-function-name="OUTPUT" id="5ih">
<ellipse cb-classname="GraphicEllipseEntity" class="algorithm" cx="4750" cy="580" id="5im" rx="40" ry="40"/>
<rect cb-classname="GraphicRectangleEntity" class="algorithm" height="80" id="5iD" width="30" x="4790" y="540"/>
<line cb-classname="GraphicLineEntity" class="algorithm" id="5i6" x1="4790" x2="4820" y1="580" y2="580"/>
<g cb-classname="ControlPin" cb-pin-name="sZ-udq-Hl" id="5wB">
<line cb-classname="GraphicLineEntity" class="signalline" id="5wT" x1="4340" x2="4710" y1="580" y2="580"/>
<polygon cb-classname="GraphicPolygonEntity" class="signal" id="5wp" points="4710,580 4699,574 4699,585"/>
</g>
<g cb-classname="PointStatusIndicator" cb-indicator-type="highway" cb-source="7c-CWl-Lu" id="5wA" visibility="hidden">
<line cb-classname="GraphicLineEntity" class="algorithmline" id="5wN" x1="4710" x2="4750" y1="580" y2="540"/>
<line cb-classname="GraphicLineEntity" class="algorithmline" id="5wa" x1="4750" x2="4790" y1="540" y2="580"/>
<line cb-classname="GraphicLineEntity" class="algorithmline" id="5wh" x1="4790" x2="4750" y1="580" y2="620"/>
<line cb-classname="GraphicLineEntity" class="algorithmline" id="5wm" x1="4750" x2="4710" y1="620" y2="580"/>
</g>
<g cb-classname="PointStatusIndicator" cb-indicator-type="hardware" cb-source="s6-VmQ-7U" id="5wD" visibility="hidden">
<text cb-classname="GraphicTextEntity" class="algorithm" fill="#000000" font-family="Arial" font-size="20" id="5w6" x="4740" y="590">
H
</text>
</g>
<g cb-classname="PointStatusIndicator" cb-indicator-type="alarm" cb-source="Qo-OmV-wN" id="5CB" visibility="hidden">
<text cb-classname="GraphicTextEntity" class="algorithm" fill="#000000" font-family="Arial" font-size="20" id="5CT" x="4797" y="608">
A
</text>
</g>
<g cb-classname="PointStatusIndicator" cb-indicator-type="ingraphic" cb-source="1c-PGs-xS" id="5Cp" visibility="hidden">
<text cb-classname="GraphicTextEntity" class="algorithm" fill="#000000" font-family="Arial" font-size="20" id="5CA" x="4796" y="569">
G
</text>
</g>
<g cb-classname="DynamicText" cb-labeled="false" cb-pin-name="un" cb-source="Bs-9DU-FU" class="algorithm" id="5CN" text-anchor="end">
<text baseline-shift="-100%" cb-classname="GraphicTextEntity" class="algorithm" fill="black" font-family="MS Shell Dlg" font-size="20" font-style="normal" font-weight="normal" id="5Ca" text-anchor="end" text-decoration="normal" x="4690" y="540"/>
</g>
<g baseline-shift="-100%" cb-anchor-x="4690" cb-anchor-y="580" cb-classname="PointReferences" cb-max-width="400" cb-originator="false" cb-source="7c-CWl-Lu" class="signal" id="5Ch" text-anchor="end">
<text baseline-shift="-100%" cb-classname="GraphicTextEntity" class="algorithm" id="5Cm" text-anchor="end" x="4690" y="580">
1/S11041
</text>
</g>
<g baseline-shift="-100%" cb-anchor-x="4840" cb-anchor-y="540" cb-classname="PointDescription" cb-content="extended" cb-labeled="false" cb-max-width="460" cb-source="6V-gRE-vR" class="algorithm" id="5CD" text-anchor="start">
<text baseline-shift="-100%" cb-classname="GraphicTextEntity" class="algorithm" id="5C6" text-anchor="start" x="4840" y="540">
TEST MOV
</text>
</g>
</g>
<g cb-alg-CA="$449$cb-alg-xk01$" cb-algorithm-id="007" cb-classname="ExternalPointInterface" cb-function-name="OUTPUT" id="5KB">
<ellipse cb-classname="GraphicEllipseEntity" class="algorithm" cx="4750" cy="660" id="5KT" rx="40" ry="40"/>
<rect cb-classname="GraphicRectangleEntity" class="algorithm" height="80" id="5Kp" width="30" x="4790" y="620"/>
<line cb-classname="GraphicLineEntity" class="algorithm" id="5KA" x1="4790" x2="4820" y1="660" y2="660"/>
<g cb-classname="ControlPin" cb-pin-name="df-jff-9k" id="5KN">
<line cb-classname="GraphicLineEntity" class="signalline" id="5Ka" x1="4340" x2="4710" y1="660" y2="660"/>
<polygon cb-classname="GraphicPolygonEntity" class="signal" id="5Kh" points="4710,660 4699,654 4699,665"/>
</g>
<g cb-classname="PointStatusIndicator" cb-indicator-type="highway" cb-source="Bs-9DU-FU" id="5Km" visibility="hidden">
<line cb-classname="GraphicLineEntity" class="algorithmline" id="5KD" x1="4710" x2="4750" y1="660" y2="620"/>
<line cb-classname="GraphicLineEntity" class="algorithmline" id="5K6" x1="4750" x2="4790" y1="620" y2="660"/>
<line cb-classname="GraphicLineEntity" class="algorithmline" id="6UB" x1="4790" x2="4750" y1="660" y2="700"/>
<line cb-classname="GraphicLineEntity" class="algorithmline" id="6UT" x1="4750" x2="4710" y1="700" y2="660"/>
</g>
<g cb-classname="PointStatusIndicator" cb-indicator-type="hardware" cb-source="q8-apv-o4" id="6Up" visibility="hidden">
<text cb-classname="GraphicTextEntity" class="algorithm" fill="#000000" font-family="Arial" font-size="20" id="6UA" x="4740" y="670">
H
</text>
</g>
<g cb-classname="PointStatusIndicator" cb-indicator-type="alarm" cb-source="s6-VmQ-7U" id="6UN" visibility="hidden">
<text cb-classname="GraphicTextEntity" class="algorithm" fill="#000000" font-family="Arial" font-size="20" id="6Ua" x="4797" y="688">
A
</text>
</g>
<g cb-classname="PointStatusIndicator" cb-indicator-type="ingraphic" cb-source="Qo-OmV-wN" id="6Uh" visibility="hidden">
<text cb-classname="GraphicTextEntity" class="algorithm" fill="#000000" font-family="Arial" font-size="20" id="6Um" x="4796" y="649">
G
</text>
</g>
<g cb-classname="DynamicText" cb-labeled="false" cb-pin-name="RP" cb-source="1c-PGs-xS" class="algorithm" id="6UD" text-anchor="end">
<text baseline-shift="-100%" cb-classname="GraphicTextEntity" class="algorithm" fill="black" font-family="MS Shell Dlg" font-size="20" font-style="normal" font-weight="normal" id="6U6" text-anchor="end" text-decoration="normal" x="4690" y="620"/>
</g>
<g baseline-shift="-100%" cb-anchor-x="4690" cb-anchor-y="660" cb-classname="PointReferences" cb-max-width="400" cb-originator="false" cb-source="Bs-9DU-FU" class="signal" id="6NB" text-anchor="end">
<text baseline-shift="-100%" cb-classname="GraphicTextEntity" class="algorithm" id="6NT" text-anchor="end" x="4690" y="660">
1/S11045
</text>
</g>
<g baseline-shift="-100%" cb-anchor-x="4840" cb-anchor-y="620" cb-classname="PointDescription" cb-content="extended" cb-labeled="false" cb-max-width="460" cb-source="7c-CWl-Lu" class="algorithm" id="6Np" text-anchor="start">
<text baseline-shift="-100%" cb-classname="GraphicTextEntity" class="algorithm" id="6NA" text-anchor="start" x="4840" y="620">
TEST MOV
</text>
</g>
</g>
</g>
<g cb-classname="IncludeDocument" cb-modify-time="10/14/2019 14:07:27" cb-objectname="frame" id="5">
<text cb-classname="GraphicTextEntity" class="frame" font-size="72" id="95h" text-anchor="middle" x="1740" y="3426">
Valcon typical
</text>
<g baseline-shift="-50%" cb-classname="DynamicText" cb-labeled="false" cb-source="7c-smMm-rQ" class="frame" id="95m">
<text baseline-shift="-100%" cb-classname="GraphicTextEntity" class="frame" fill="black" font-family="arial" font-size="26" font-style="normal" font-weight="normal" id="95D" text-decoration="normal" x="5040" y="3410">
1
</text>
</g>
<g baseline-shift="-50%" cb-classname="DynamicText" cb-labeled="false" cb-source="6V-FGyX-on" class="frame" id="956" text-anchor="end">
<text baseline-shift="0%" cb-classname="GraphicTextEntity" class="frame" fill="black" font-family="arial" font-size="24" font-style="normal" font-weight="bold" id="9xB" text-anchor="end" text-decoration="normal" x="2950" y="3300">
1
</text>
</g>
<g baseline-shift="-50%" cb-classname="DynamicText" cb-source="HE-mVtN-7k" class="frame" id="9xT" text-anchor="end">
<text baseline-shift="0%" cb-classname="GraphicTextEntity" class="frame" fill="black" font-family="arial" font-size="24" font-style="normal" font-weight="bold" id="9xp" text-anchor="end" text-decoration="normal" x="2950" y="3350">
1
</text>
</g>
<g cb-classname="DynamicText" cb-labeled="false" cb-source="Wt-tkzwr-2xs2Z" class="frame" id="9xA" text-anchor="start">
<text baseline-shift="-100%" cb-classname="GraphicTextEntity" class="frame" fill="black" font-family="verdana" font-size="36" font-style="normal" font-weight="normal" id="9xN" text-anchor="start" text-decoration="normal" x="2980" y="3320">
MOV-TEST-TQ
</text>
</g>
<g baseline-shift="-50%" cb-classname="DynamicText" cb-source="df-rjby2-SowImA" class="frame" id="9xa" text-anchor="end">
<text baseline-shift="0%" cb-classname="GraphicTextEntity" class="frame" fill="black" font-size="24" font-style="normal" font-weight="bold" id="9xh" text-anchor="end" text-decoration="normal" x="2950" y="3400">
S11046
</text>
</g>
<g baseline-shift="0%" cb-classname="DynamicText" cb-source="sZ-ny7xWF9p" class="frame" id="9xm" text-anchor="end">
<text cb-classname="GraphicTextEntity" class="frame" fill="black" font-family="arial" font-size="22" font-style="normal" font-weight="normal" id="9xD" text-anchor="end" text-decoration="normal" x="2950" y="3450">
A
</text>
</g>
<g baseline-shift="0%" cb-classname="DynamicText" cb-source="cJ-PKaH2Li7-W7vy" class="frame" id="9x6" text-anchor="start">
<text baseline-shift="-50%" cb-classname="GraphicTextEntity" class="frame" fill="black" font-family="arial" font-size="22" font-style="normal" font-weight="normal" id="9fB" text-anchor="start" text-decoration="normal" x="870" y="3280">

</text>
</g>
<g baseline-shift="-50%" cb-classname="DynamicText" cb-labeled="false" cb-source="wk-cA9Lul8w" class="frame" id="9fT" text-anchor="start">
<text cb-classname="GraphicTextEntity" class="frame" fill="black" font-family="arial" font-size="26" font-style="normal" font-weight="normal" id="9fp" text-anchor="start" text-decoration="normal" x="870" y="3330">

</text>
</g>
<g baseline-shift="-50%" cb-classname="DynamicText" cb-source="q8-Gbtv8own" class="frame" id="9fA" text-anchor="start">
<text cb-classname="GraphicTextEntity" class="frame" fill="black" font-family="arial" font-size="26" font-style="normal" font-weight="normal" id="9fN" text-anchor="start" text-decoration="normal" x="870" y="3380">

</text>
</g>
<g cb-classname="GraphicShape" cb-tag="BORDER" id="9fa">
<line cb-classname="GraphicLineEntity" class="frameline" id="9fh" x1="40" x2="40" y1="40" y2="3460"/>
<line cb-classname="GraphicLineEntity" class="frameline" id="9fm" x1="40" x2="5380" y1="3460" y2="3460"/>
<line cb-classname="GraphicLineEntity" class="frameline" id="9fD" x1="5380" x2="5380" y1="3460" y2="40"/>
<line cb-classname="GraphicLineEntity" class="frameline" id="9f6" x1="5380" x2="40" y1="40" y2="40"/>
<line cb-classname="GraphicLineEntity" class="frame" id="9iB" x1="5430" x2="5440" y1="3510" y2="3510"/>
</g>
<g cb-classname="GraphicShape" cb-tag="TITLE BOX" id="9iT">
<line cb-classname="GraphicLineEntity" class="frameline" id="9ip" x1="2340" x2="2340" y1="3260" y2="3460"/>
<line cb-classname="GraphicLineEntity" class="frameline" id="9iA" x1="2340" x2="5380" y1="3260" y2="3260"/>
<line cb-classname="GraphicLineEntity" class="frameline" id="9iN" x1="4520" x2="5380" y1="3360" y2="3360"/>
<line cb-classname="GraphicLineEntity" class="frameline" id="9ia" x1="4520" x2="5380" y1="3310" y2="3310"/>
<line cb-classname="GraphicLineEntity" class="frameline" id="9ih" x1="4520" x2="4520" y1="3260" y2="3460"/>
<line cb-classname="GraphicLineEntity" class="frameline" id="9im" x1="4700" x2="4700" y1="3360" y2="3460"/>
<line cb-classname="GraphicLineEntity" class="frameline" id="9iD" x1="5210" x2="5210" y1="3260" y2="3360"/>
<line cb-classname="GraphicLineEntity" class="frame" fill="none" id="9i6" stroke="black" stroke-width="2" x1="130" x2="130" y1="40" y2="3260"/>
<line cb-classname="GraphicLineEntity" class="frame" id="9wB" x1="40" x2="5380" y1="140" y2="140"/>
<line cb-classname="GraphicLineEntity" class="frame" id="9wT" x1="40" x2="1080" y1="220" y2="220"/>
<line cb-classname="GraphicLineEntity" class="frame" id="9wp" stroke-width="2" x1="1080" x2="1080" y1="3260" y2="40"/>
<line cb-classname="GraphicLineEntity" class="frame" id="9wA" stroke-width="2" x1="40" x2="1080" y1="300" y2="300"/>
<line cb-classname="GraphicLineEntity" class="frame" id="9wN" x1="40" x2="1080" y1="380" y2="380"/>
<line cb-classname="GraphicLineEntity" class="frame" id="9wa" stroke-width="2" x1="600" x2="600" y1="40" y2="3260"/>
<line cb-classname="GraphicLineEntity" class="frame" id="9wh" stroke-width="2" x1="710" x2="710" y1="40" y2="3260"/>
<line cb-classname="GraphicLineEntity" class="frame" id="9wm" x1="40" x2="2340" y1="3260" y2="3260"/>
<line cb-classname="GraphicLineEntity" class="frame" id="9wD" x1="5290" x2="5290" y1="40" y2="3260"/>
<line cb-classname="GraphicLineEntity" class="frame" id="9w6" x1="4820" x2="4820" y1="40" y2="3260"/>
<line cb-classname="GraphicLineEntity" class="frame" id="9CB" x1="4710" x2="4710" y1="40" y2="3260"/>
<line cb-classname="GraphicLineEntity" class="frame" id="9CT" x1="4340" x2="4340" y1="40" y2="3260"/>
<line cb-classname="GraphicLineEntity" class="frame" id="9Cp" x1="4340" x2="5380" y1="220" y2="220"/>
<line cb-classname="GraphicLineEntity" class="frame" id="9CA" x1="5380" x2="4340" y1="300" y2="300"/>
<line cb-classname="GraphicLineEntity" class="frame" id="9CN" x1="4340" x2="5380" y1="380" y2="380"/>
<line cb-classname="GraphicLineEntity" class="frame" id="9Ca" x1="5380" x2="4340" y1="460" y2="460"/>
<line cb-classname="GraphicLineEntity" class="frame" id="9Ch" x1="4340" x2="5380" y1="540" y2="540"/>
<line cb-classname="GraphicLineEntity" class="frame" id="9Cm" x1="4340" x2="5380" y1="620" y2="620"/>
<line cb-classname="GraphicLineEntity" class="frame" id="9CD" x1="4340" x2="5380" y1="700" y2="700"/>
<line cb-classname="GraphicLineEntity" class="frame" id="9C6" x1="5380" x2="4340" y1="780" y2="780"/>
<line cb-classname="GraphicLineEntity" class="frame" id="9KB" x1="4340" x2="5380" y1="860" y2="860"/>
<line cb-classname="GraphicLineEntity" class="frame" id="9KT" x1="5380" x2="4340" y1="940" y2="940"/>
<line cb-classname="GraphicLineEntity" class="frame" id="9Kp" x1="4340" x2="5380" y1="1020" y2="1020"/>
<line cb-classname="GraphicLineEntity" class="frame" id="9KA" x1="5380" x2="4340" y1="1100" y2="1100"/>
<line cb-classname="GraphicLineEntity" class="frame" id="9KN" x1="5380" x2="4340" y1="1180" y2="1180"/>
<line cb-classname="GraphicLineEntity" class="frame" id="9Ka" x1="4340" x2="5380" y1="1260" y2="1260"/>
<line cb-classname="GraphicLineEntity" class="frame" id="9Kh" x1="5380" x2="4340" y1="1340" y2="1340"/>
<line cb-classname="GraphicLineEntity" class="frame" id="9Km" x1="4340" x2="5380" y1="1420" y2="1420"/>
<line cb-classname="GraphicLineEntity" class="frame" id="9KD" x1="5380" x2="4340" y1="1500" y2="1500"/>
<line cb-classname="GraphicLineEntity" class="frame" id="9K6" x1="4340" x2="5380" y1="1580" y2="1580"/>
<line cb-classname="GraphicLineEntity" class="frame" id="1UBS" x1="4340" x2="5380" y1="1660" y2="1660"/>
<line cb-classname="GraphicLineEntity" class="frame" id="1UBl" x1="4340" x2="5380" y1="1740" y2="1740"/>
<line cb-classname="GraphicLineEntity" class="frame" id="1UB0" x1="4340" x2="5380" y1="1820" y2="1820"/>
<line cb-classname="GraphicLineEntity" class="frame" id="1UBK" x1="4340" x2="5380" y1="1900" y2="1900"/>
<line cb-classname="GraphicLineEntity" class="frame" id="1UB1" stroke-width="2" x1="4340" x2="5380" y1="1980" y2="1980"/>
<line cb-classname="GraphicLineEntity" class="frame" id="1UBz" x1="4340" x2="5380" y1="2060" y2="2060"/>
<line cb-classname="GraphicLineEntity" class="frame" id="1UB9" x1="4340" x2="5380" y1="2140" y2="2140"/>
<line cb-classname="GraphicLineEntity" class="frame" id="1UBu" x1="4340" x2="5380" y1="2220" y2="2220"/>
<line cb-classname="GraphicLineEntity" class="frame" id="1UBn" x1="4340" x2="5380" y1="2300" y2="2300"/>
<line cb-classname="GraphicLineEntity" class="frame" id="1UBL" x1="4340" x2="5380" y1="2380" y2="2380"/>
<line cb-classname="GraphicLineEntity" class="frame" id="1UTS" x1="4340" x2="5380" y1="2460" y2="2460"/>
<line cb-classname="GraphicLineEntity" class="frame" id="1UTl" x1="4340" x2="5380" y1="2540" y2="2540"/>
<line cb-classname="GraphicLineEntity" class="frame" id="1UT0" x1="4340" x2="5380" y1="2620" y2="2620"/>
<line cb-classname="GraphicLineEntity" class="frame" id="1UTK" x1="4340" x2="5380" y1="2700" y2="2700"/>
<line cb-classname="GraphicLineEntity" class="frame" id="1UT1" x1="4340" x2="5380" y1="2780" y2="2780"/>
<line cb-classname="GraphicLineEntity" class="frame" id="1UTz" x1="4340" x2="5380" y1="2860" y2="2860"/>
<line cb-classname="GraphicLineEntity" class="frame" id="1UT9" x1="4340" x2="5380" y1="2940" y2="2940"/>
<line cb-classname="GraphicLineEntity" class="frame" id="1UTu" x1="4340" x2="5380" y1="3020" y2="3020"/>
<line cb-classname="GraphicLineEntity" class="frame" id="1UTn" x1="1080" x2="40" y1="460" y2="460"/>
<line cb-classname="GraphicLineEntity" class="frame" id="1UTL" x1="1080" x2="40" y1="540" y2="540"/>
<line cb-classname="GraphicLineEntity" class="frame" id="1UpS" x1="1080" x2="40" y1="620" y2="620"/>
<line cb-classname="GraphicLineEntity" class="frame" id="1Upl" x1="1080" x2="40" y1="700" y2="700"/>
<line cb-classname="GraphicLineEntity" class="frame" id="1Up0" x1="1080" x2="40" y1="780" y2="780"/>
<line cb-classname="GraphicLineEntity" class="frame" id="1UpK" x1="1080" x2="40" y1="860" y2="860"/>
<line cb-classname="GraphicLineEntity" class="frame" id="1Up1" x1="1080" x2="40" y1="940" y2="940"/>
<line cb-classname="GraphicLineEntity" class="frame" id="1Upz" x1="1080" x2="40" y1="1020" y2="1020"/>
<line cb-classname="GraphicLineEntity" class="frame" id="1Up9" x1="1080" x2="40" y1="1100" y2="1100"/>
<line cb-classname="GraphicLineEntity" class="frame" id="1Upu" x1="1080" x2="40" y1="1180" y2="1180"/>
<line cb-classname="GraphicLineEntity" class="frame" id="1Upn" x1="1080" x2="40" y1="1260" y2="1260"/>
<line cb-classname="GraphicLineEntity" class="frame" id="1UpL" x1="1080" x2="40" y1="1340" y2="1340"/>
<line cb-classname="GraphicLineEntity" class="frame" id="1UAS" x1="1080" x2="40" y1="1420" y2="1420"/>
<line cb-classname="GraphicLineEntity" class="frame" id="1UAl" x1="1080" x2="40" y1="1500" y2="1500"/>
<line cb-classname="GraphicLineEntity" class="frame" id="1UA0" x1="1080" x2="40" y1="1580" y2="1580"/>
<line cb-classname="GraphicLineEntity" class="frame" id="1UAK" x1="1080" x2="40" y1="1660" y2="1660"/>
<line cb-classname="GraphicLineEntity" class="frame" id="1UA1" x1="1080" x2="40" y1="1740" y2="1740"/>
<line cb-classname="GraphicLineEntity" class="frame" id="1UAz" x1="1080" x2="40" y1="1820" y2="1820"/>
<line cb-classname="GraphicLineEntity" class="frame" id="1UA9" x1="1080" x2="40" y1="1900" y2="1900"/>
<line cb-classname="GraphicLineEntity" class="frame" id="1UAu" x1="1080" x2="40" y1="1980" y2="1980"/>
<line cb-classname="GraphicLineEntity" class="frame" id="1UAn" x1="1080" x2="40" y1="2060" y2="2060"/>
<line cb-classname="GraphicLineEntity" class="frame" id="1UAL" x1="1080" x2="40" y1="2140" y2="2140"/>
<line cb-classname="GraphicLineEntity" class="frame" id="1UNS" x1="1080" x2="40" y1="2220" y2="2220"/>
<line cb-classname="GraphicLineEntity" class="frame" id="1UNl" x1="1080" x2="40" y1="2300" y2="2300"/>
<line cb-classname="GraphicLineEntity" class="frame" id="1UN0" x1="1080" x2="40" y1="2380" y2="2380"/>
<line cb-classname="GraphicLineEntity" class="frame" id="1UNK" x1="1080" x2="40" y1="2460" y2="2460"/>
<line cb-classname="GraphicLineEntity" class="frame" id="1UN1" x1="1080" x2="40" y1="2540" y2="2540"/>
<line cb-classname="GraphicLineEntity" class="frame" id="1UNz" x1="1080" x2="40" y1="2620" y2="2620"/>
<line cb-classname="GraphicLineEntity" class="frame" id="1UN9" x1="1080" x2="40" y1="2700" y2="2700"/>
<line cb-classname="GraphicLineEntity" class="frame" id="1UNu" x1="1080" x2="40" y1="2780" y2="2780"/>
<line cb-classname="GraphicLineEntity" class="frame" id="1UNn" x1="1080" x2="40" y1="2860" y2="2860"/>
<line cb-classname="GraphicLineEntity" class="frame" id="1UNL" x1="1080" x2="40" y1="2940" y2="2940"/>
<line cb-classname="GraphicLineEntity" class="frame" id="1UaS" x1="1080" x2="40" y1="3020" y2="3020"/>
<line cb-classname="GraphicLineEntity" class="frame" id="1Ual" x1="40" x2="1170" y1="3410" y2="3410"/>
<line cb-classname="GraphicLineEntity" class="frame" id="1Ua0" x1="140" x2="140" y1="3460" y2="3260"/>
<line cb-classname="GraphicLineEntity" class="frame" id="1UaK" x1="440" x2="440" y1="3460" y2="3260"/>
<line cb-classname="GraphicLineEntity" class="frame" id="1Ua1" x1="580" x2="580" y1="3460" y2="3260"/>
<line cb-classname="GraphicLineEntity" class="frame" id="1Uaz" x1="720" x2="720" y1="3460" y2="3260"/>
<line cb-classname="GraphicLineEntity" class="frame" id="1Ua9" x1="860" x2="860" y1="3460" y2="3260"/>
<line cb-classname="GraphicLineEntity" class="frame" id="1Uau" x1="1170" x2="1170" y1="3460" y2="3260"/>
<line cb-classname="GraphicLineEntity" class="frame" id="1Uan" x1="720" x2="1170" y1="3360" y2="3360"/>
<line cb-classname="GraphicLineEntity" class="frame" id="1UaL" x1="720" x2="1170" y1="3310" y2="3310"/>
<line cb-classname="GraphicLineEntity" class="frame" id="1UhS" x1="2740" x2="2740" y1="3260" y2="3460"/>
<line cb-classname="GraphicLineEntity" class="frame" id="1Uhl" x1="2840" x2="2840" y1="3460" y2="3260"/>
<line cb-classname="GraphicLineEntity" class="frame" id="1Uh0" x1="2740" x2="2960" y1="3410" y2="3410"/>
<line cb-classname="GraphicLineEntity" class="frame" id="1UhK" x1="2960" x2="2960" y1="3460" y2="3260"/>
<line cb-classname="GraphicLineEntity" class="frame" id="1Uh1" x1="2740" x2="2960" y1="3360" y2="3360"/>
<line cb-classname="GraphicLineEntity" class="frame" id="1Uhz" x1="2740" x2="2960" y1="3310" y2="3310"/>
<line cb-classname="GraphicLineEntity" class="frame" id="1Uh9" x1="1080" x2="40" y1="3100" y2="3100"/>
<line cb-classname="GraphicLineEntity" class="frame" id="1Uhu" x1="1080" x2="40" y1="3180" y2="3180"/>
<line cb-classname="GraphicLineEntity" class="frame" id="1Uhn" x1="4340" x2="5380" y1="3100" y2="3100"/>
<line cb-classname="GraphicLineEntity" class="frame" id="1UhL" x1="4340" x2="5380" y1="3180" y2="3180"/>
<line cb-classname="GraphicLineEntity" class="frame" id="1UmS" x1="710" x2="1080" y1="90" y2="90"/>
</g>
<g cb-classname="GraphicShape" cb-tag="TEXT LABELS" id="1Uml">
<text cb-classname="GraphicTextEntity" class="frame" font-size="25" id="1Um0" x="4713" y="3400">
Dwg-No
</text>
<text baseline-shift="-50%" cb-classname="GraphicTextEntity" class="annotation" fill="#000000" font-family="MS Shell Dlg 2" font-size="24" id="1UmK" x="4530" y="3280">
=
</text>
</g>
<text baseline-shift="-50%" cb-classname="GraphicTextEntity" class="frame" font-family="MS Shell Dlg 2" font-size="28" id="1Um1" text-anchor="middle" x="1760" y="3290">
EMERSON AUTOMATION SOLUTIONS
</text>
<g baseline-shift="0%" cb-anchor-x="2360" cb-anchor-y="3440" cb-classname="GroupText" cb-max-width="340" fill="black" id="1Umz" text-anchor="start">
<text baseline-shift="0%" cb-classname="GraphicTextEntity" class="frame" fill="black" font-family="arial" font-size="8" font-weight="normal" id="1Um9" text-anchor="start" text-decoration="normal" x="2360" y="3296">
THIS DOCUMENT CONTAINS INFORMATION PROPRIETARY TO
</text>
<text baseline-shift="0%" cb-classname="GraphicTextEntity" class="frame" fill="black" font-family="arial" font-size="8" font-weight="normal" id="1Umu" text-anchor="start" text-decoration="normal" x="2360" y="3311">
EMERSON PROCESS MANAGEMENT POWER &amp; WATER SOLUTIONS,
</text>
<text baseline-shift="0%" cb-classname="GraphicTextEntity" class="frame" fill="black" font-family="arial" font-size="8" font-weight="normal" id="1Umn" text-anchor="start" text-decoration="normal" x="2360" y="3326">
INC. IT IS SUBMITTED IN CONFIDENCE AND TRUST, IS TO BE USED BY
</text>
<text baseline-shift="0%" cb-classname="GraphicTextEntity" class="frame" fill="black" font-family="arial" font-size="8" font-weight="normal" id="1UmL" text-anchor="start" text-decoration="normal" x="2360" y="3341">
YOU SOLELY FOR THE PURPOSES FOR WHICH IT IS FURNISHED AND
</text>
<text baseline-shift="0%" cb-classname="GraphicTextEntity" class="frame" fill="black" font-family="arial" font-size="8" font-weight="normal" id="1UDS" text-anchor="start" text-decoration="normal" x="2360" y="3356">
IS TO BE RETURNED UPON REQUEST. THIS DOCUMENT AND ANY
</text>
<text baseline-shift="0%" cb-classname="GraphicTextEntity" class="frame" fill="black" font-family="arial" font-size="8" font-weight="normal" id="1UDl" text-anchor="start" text-decoration="normal" x="2360" y="3371">
OTHER INFORMATION PROVIDED TO YOU IS NOT TO BE
</text>
<text baseline-shift="0%" cb-classname="GraphicTextEntity" class="frame" fill="black" font-family="arial" font-size="8" font-weight="normal" id="1UD0" text-anchor="start" text-decoration="normal" x="2360" y="3386">
REPRODUCED, TRANSMITTED, DISCLOSED, OR USED OTHERWISE IN
</text>
<text baseline-shift="0%" cb-classname="GraphicTextEntity" class="frame" fill="black" font-family="arial" font-size="8" font-weight="normal" id="1UDK" text-anchor="start" text-decoration="normal" x="2360" y="3401">
WHOLE OR IN PART WITHOUT THE PRIOR WRITTEN AUTHORIZATION
</text>
<text baseline-shift="0%" cb-classname="GraphicTextEntity" class="frame" fill="black" font-family="arial" font-size="8" font-weight="normal" id="1UD1" text-anchor="start" text-decoration="normal" x="2360" y="3416">
OF EMERSON PROCESS MANAGEMENT POWER &amp; WATER
</text>
<text baseline-shift="0%" cb-classname="GraphicTextEntity" class="frame" fill="black" font-family="arial" font-size="8" font-weight="normal" id="1UDz" text-anchor="start" text-decoration="normal" x="2360" y="3431">
SOLUTIONS,INC.
</text>
</g>
<g baseline-shift="-50%" cb-classname="DynamicText" cb-labeled="false" cb-source="Wt-8OrM-wr" class="frame" id="1UD9" text-anchor="start">
<text baseline-shift="-100%" cb-classname="GraphicTextEntity" class="frame" fill="black" font-family="arial" font-size="26" font-style="normal" font-weight="normal" id="1UDu" text-anchor="start" text-decoration="normal" x="5090" y="3410">
1
</text>
</g>
<g baseline-shift="-50%" cb-classname="DynamicText" cb-source="df-rjby2-SowImA" class="frame" id="1UDn" text-anchor="start">
<text baseline-shift="-100%" cb-classname="GraphicTextEntity" class="frame" fill="black" font-family="arial" font-size="26" font-style="normal" font-weight="normal" id="1UDL" text-anchor="start" text-decoration="normal" x="5120" y="3410">
S11046
</text>
</g>
<g baseline-shift="-100%" cb-anchor-x="4710" cb-anchor-y="3410" cb-classname="GroupText" id="1U6S" text-anchor="start">
<text baseline-shift="-100%" cb-classname="GraphicTextEntity" class="frame" fill="black" font-family="arial" font-size="26" font-weight="normal" id="1U6l" text-anchor="start" text-decoration="normal" x="4710" y="3410">
-
</text>
</g>
<text baseline-shift="0%" cb-classname="GraphicTextEntity" class="annotation" fill="#000000" font-family="Arial" font-size="22" id="1U60" x="50" y="3430">
Rew.
</text>
<text baseline-shift="-50%" cb-classname="GraphicTextEntity" class="annotation" fill="#000000" font-family="Arial" font-size="22" id="1U6K" x="150" y="3430">
Description
</text>
<text baseline-shift="-50%" cb-classname="GraphicTextEntity" class="annotation" fill="#000000" font-family="Arial" font-size="22" id="1U61" text-anchor="start" x="450" y="3430">
Date
</text>
<text baseline-shift="-50%" cb-classname="GraphicTextEntity" class="annotation" fill="#000000" font-family="Arial" font-size="22" id="1U6z" text-anchor="start" x="590" y="3430">
Name
</text>
<text baseline-shift="-50%" cb-classname="GraphicTextEntity" class="annotation" fill="#000000" font-family="Arial" font-size="22" id="1U69" text-anchor="start" x="730" y="3430">
Norm
</text>
<text baseline-shift="-50%" cb-classname="GraphicTextEntity" class="annotation" fill="#000000" font-family="Arial" font-size="22" id="1U6u" text-anchor="start" x="730" y="3380">
App.
</text>
<text baseline-shift="-50%" cb-classname="GraphicTextEntity" class="annotation" fill="#000000" font-family="Arial" font-size="22" id="1U6n" text-anchor="start" x="730" y="3330">
Eng.
</text>
<text baseline-shift="-50%" cb-classname="GraphicTextEntity" class="annotation" fill="#000000" font-family="Arial" font-size="22" id="1U6L" x="730" y="3280">
Date
</text>
<text baseline-shift="-50%" cb-classname="GraphicTextEntity" class="annotation" fill="#000000" font-family="Arial" font-size="22" id="1NBS" x="2750" y="3430">
Rev.
</text>
<text baseline-shift="-50%" cb-classname="GraphicTextEntity" class="annotation" fill="#000000" font-family="Arial" font-size="22" id="1NBl" text-anchor="start" x="2750" y="3380">
Sheet
</text>
<text baseline-shift="-50%" cb-classname="GraphicTextEntity" class="annotation" fill="#000000" font-family="Arial" font-size="22" id="1NB0" text-anchor="start" x="2750" y="3330">
Task
</text>
<text baseline-shift="-50%" cb-classname="GraphicTextEntity" class="annotation" fill="#000000" font-family="Arial" font-size="22" id="1NBK" text-anchor="start" x="2750" y="3280">
Drop
</text>
<g cb-classname="GraphicShape" cb-tag="TEXT LABELS" id="1NB1">
<text baseline-shift="0%" cb-classname="GraphicTextEntity" class="frame" font-family="MS Shell Dlg 2" font-size="25" id="1NBz" x="4533" y="3400">
EPM-Nr.
</text>
</g>
<g baseline-shift="-100%" cb-anchor-x="4530" cb-anchor-y="3410" cb-classname="GroupText" id="1NB9" text-anchor="start">
<text baseline-shift="-100%" cb-classname="GraphicTextEntity" class="frame" fill="black" font-family="arial" font-size="26" font-weight="normal" id="1NBu" text-anchor="start" text-decoration="normal" x="4530" y="3410">
3272711
</text>
</g>
<g baseline-shift="-100%" cb-anchor-x="140" cb-anchor-y="40" cb-classname="GroupText" id="1NBn" text-anchor="start">
<text baseline-shift="-100%" cb-classname="GraphicTextEntity" class="annotation" fill="black" font-family="Verdana" font-size="22" font-weight="normal" id="1NBL" text-anchor="start" text-decoration="normal" x="140" y="40">
Desc.
</text>
</g>
<text baseline-shift="-100%" cb-classname="GraphicTextEntity" class="annotation" fill="#000000" font-family="Verdana" font-size="22" id="1NTS" x="720" y="40">
KKS
</text>
<text baseline-shift="-100%" cb-classname="GraphicTextEntity" class="annotation" fill="#000000" font-family="Verdana" font-size="22" id="1NTl" x="720" y="90">
Ref.
</text>
<text cb-classname="GraphicTextEntity" class="frame" fill="#000000" font-family="MS Shell Dlg 2" font-size="6" id="1NT0" x="4470" y="50">
FRAME rev. E
</text>
<g cb-classname="DynamicText" cb-labeled="false" cb-source="Qo-sIeDHNBSG" id="1NTK">
<text baseline-shift="-50%" cb-classname="GraphicTextEntity" class="frame" font-size="24" id="1NT1" text-anchor="middle" x="4760" y="3280">

</text>
</g>
<text baseline-shift="0%" cb-classname="GraphicTextEntity" class="annotation" fill="#000000" font-family="MS Shell Dlg 2" font-size="36" id="1NTz" x="5310" y="200">
01
</text>
<text baseline-shift="0%" cb-classname="GraphicTextEntity" class="annotation" fill="#000000" font-family="MS Shell Dlg 2" font-size="36" id="1NT9" x="5310" y="280">
02
</text>
<text baseline-shift="0%" cb-classname="GraphicTextEntity" class="annotation" fill="#000000" font-family="MS Shell Dlg 2" font-size="36" id="1NTu" x="5310" y="360">
03
</text>
<text baseline-shift="0%" cb-classname="GraphicTextEntity" class="annotation" fill="#000000" font-family="MS Shell Dlg 2" font-size="36" id="1NTn" x="5310" y="440">
04
</text>
<text baseline-shift="0%" cb-classname="GraphicTextEntity" class="annotation" fill="#000000" font-family="MS Shell Dlg 2" font-size="36" id="1NTL" x="5310" y="520">
05
</text>
<text baseline-shift="0%" cb-classname="GraphicTextEntity" class="annotation" fill="#000000" font-family="MS Shell Dlg 2" font-size="36" id="1NpS" x="5310" y="600">
06
</text>
<text baseline-shift="0%" cb-classname="GraphicTextEntity" class="annotation" fill="#000000" font-family="MS Shell Dlg 2" font-size="36" id="1Npl" x="5310" y="680">
07
</text>
<text baseline-shift="0%" cb-classname="GraphicTextEntity" class="annotation" fill="#000000" font-family="MS Shell Dlg 2" font-size="36" id="1Np0" x="5310" y="760">
08
</text>
<text baseline-shift="0%" cb-classname="GraphicTextEntity" class="annotation" fill="#000000" font-family="MS Shell Dlg 2" font-size="36" id="1NpK" x="5310" y="840">
09
</text>
<text baseline-shift="0%" cb-classname="GraphicTextEntity" class="annotation" fill="#000000" font-family="MS Shell Dlg 2" font-size="36" id="1Np1" x="5310" y="920">
10
</text>
<text baseline-shift="0%" cb-classname="GraphicTextEntity" class="annotation" fill="#000000" font-family="MS Shell Dlg 2" font-size="36" id="1Npz" x="5310" y="1000">
11
</text>
<text baseline-shift="0%" cb-classname="GraphicTextEntity" class="annotation" fill="#000000" font-family="MS Shell Dlg 2" font-size="36" id="1Np9" x="5310" y="1080">
12
</text>
<text baseline-shift="0%" cb-classname="GraphicTextEntity" class="annotation" fill="#000000" font-family="MS Shell Dlg 2" font-size="36" id="1Npu" x="5310" y="1160">
13
</text>
<text baseline-shift="0%" cb-classname="GraphicTextEntity" class="annotation" fill="#000000" font-family="MS Shell Dlg 2" font-size="36" id="1Npn" x="5310" y="1240">
14
</text>
<text baseline-shift="0%" cb-classname="GraphicTextEntity" class="annotation" fill="#000000" font-family="MS Shell Dlg 2" font-size="36" id="1NpL" x="5310" y="1320">
15
</text>
<text baseline-shift="0%" cb-classname="GraphicTextEntity" class="annotation" fill="#000000" font-family="MS Shell Dlg 2" font-size="36" id="1NAS" x="5310" y="1400">
16
</text>
<text baseline-shift="0%" cb-classname="GraphicTextEntity" class="annotation" fill="#000000" font-family="MS Shell Dlg 2" font-size="36" id="1NAl" x="5310" y="1480">
17
</text>
<text baseline-shift="0%" cb-classname="GraphicTextEntity" class="annotation" fill="#000000" font-family="MS Shell Dlg 2" font-size="36" id="1NA0" x="5310" y="1560">
18
</text>
<text baseline-shift="0%" cb-classname="GraphicTextEntity" class="annotation" fill="#000000" font-family="MS Shell Dlg 2" font-size="36" id="1NAK" x="5310" y="1640">
19
</text>
<text baseline-shift="0%" cb-classname="GraphicTextEntity" class="annotation" fill="#000000" font-family="MS Shell Dlg 2" font-size="36" id="1NA1" x="5310" y="1720">
20
</text>
<text baseline-shift="0%" cb-classname="GraphicTextEntity" class="annotation" fill="#000000" font-family="MS Shell Dlg 2" font-size="36" id="1NAz" x="5310" y="1800">
21
</text>
<text baseline-shift="0%" cb-classname="GraphicTextEntity" class="annotation" fill="#000000" font-family="MS Shell Dlg 2" font-size="36" id="1NA9" x="5310" y="1880">
22
</text>
<text baseline-shift="0%" cb-classname="GraphicTextEntity" class="annotation" fill="#000000" font-family="MS Shell Dlg 2" font-size="36" id="1NAu" x="5310" y="1960">
23
</text>
<text baseline-shift="0%" cb-classname="GraphicTextEntity" class="annotation" fill="#000000" font-family="MS Shell Dlg 2" font-size="36" id="1NAn" x="5310" y="2040">
24
</text>
<text baseline-shift="0%" cb-classname="GraphicTextEntity" class="annotation" fill="#000000" font-family="MS Shell Dlg 2" font-size="36" id="1NAL" x="5310" y="2120">
25
</text>
<text baseline-shift="0%" cb-classname="GraphicTextEntity" class="annotation" fill="#000000" font-family="MS Shell Dlg 2" font-size="36" id="1NNS" x="5310" y="2200">
26
</text>
<text baseline-shift="0%" cb-classname="GraphicTextEntity" class="annotation" fill="#000000" font-family="MS Shell Dlg 2" font-size="36" id="1NNl" x="5310" y="2280">
27
</text>
<text baseline-shift="0%" cb-classname="GraphicTextEntity" class="annotation" fill="#000000" font-family="MS Shell Dlg 2" font-size="36" id="1NN0" x="5310" y="2360">
28
</text>
<text baseline-shift="0%" cb-classname="GraphicTextEntity" class="annotation" fill="#000000" font-family="MS Shell Dlg 2" font-size="36" id="1NNK" x="5310" y="2440">
29
</text>
<text baseline-shift="0%" cb-classname="GraphicTextEntity" class="annotation" fill="#000000" font-family="MS Shell Dlg 2" font-size="36" id="1NN1" x="5310" y="2520">
30
</text>
<text baseline-shift="0%" cb-classname="GraphicTextEntity" class="annotation" fill="#000000" font-family="MS Shell Dlg 2" font-size="36" id="1NNz" x="5310" y="2600">
31
</text>
<text baseline-shift="0%" cb-classname="GraphicTextEntity" class="annotation" fill="#000000" font-family="MS Shell Dlg 2" font-size="36" id="1NN9" x="5310" y="2680">
32
</text>
<text baseline-shift="0%" cb-classname="GraphicTextEntity" class="annotation" fill="#000000" font-family="MS Shell Dlg 2" font-size="36" id="1NNu" x="5310" y="2760">
33
</text>
<text baseline-shift="0%" cb-classname="GraphicTextEntity" class="annotation" fill="#000000" font-family="MS Shell Dlg 2" font-size="36" id="1NNn" x="5310" y="2840">
34
</text>
<text baseline-shift="0%" cb-classname="GraphicTextEntity" class="annotation" fill="#000000" font-family="MS Shell Dlg 2" font-size="36" id="1NNL" x="5310" y="2920">
35
</text>
<text baseline-shift="0%" cb-classname="GraphicTextEntity" class="annotation" fill="#000000" font-family="MS Shell Dlg 2" font-size="36" id="1NaS" x="5310" y="3000">
36
</text>
<text baseline-shift="0%" cb-classname="GraphicTextEntity" class="annotation" fill="#000000" font-family="MS Shell Dlg 2" font-size="36" id="1Nal" x="5310" y="3080">
37
</text>
<text baseline-shift="0%" cb-classname="GraphicTextEntity" class="annotation" fill="#000000" font-family="MS Shell Dlg 2" font-size="36" id="1Na0" x="5310" y="3160">
38
</text>
<text baseline-shift="0%" cb-classname="GraphicTextEntity" class="annotation" fill="#000000" font-family="MS Shell Dlg 2" font-size="36" id="1NaK" x="5310" y="3240">
39
</text>
<text baseline-shift="0%" cb-classname="GraphicTextEntity" class="annotation" fill="#000000" font-family="MS Shell Dlg 2" font-size="36" id="1Na1" x="60" y="200">
01
</text>
<text baseline-shift="0%" cb-classname="GraphicTextEntity" class="annotation" fill="#000000" font-family="MS Shell Dlg 2" font-size="36" id="1Naz" x="60" y="280">
02
</text>
<text baseline-shift="0%" cb-classname="GraphicTextEntity" class="annotation" fill="#000000" font-family="MS Shell Dlg 2" font-size="36" id="1Na9" x="60" y="360">
03
</text>
<text baseline-shift="0%" cb-classname="GraphicTextEntity" class="annotation" fill="#000000" font-family="MS Shell Dlg 2" font-size="36" id="1Nau" x="60" y="440">
04
</text>
<text baseline-shift="0%" cb-classname="GraphicTextEntity" class="annotation" fill="#000000" font-family="MS Shell Dlg 2" font-size="36" id="1Nan" x="60" y="520">
05
</text>
<text baseline-shift="0%" cb-classname="GraphicTextEntity" class="annotation" fill="#000000" font-family="MS Shell Dlg 2" font-size="36" id="1NaL" x="60" y="600">
06
</text>
<text baseline-shift="0%" cb-classname="GraphicTextEntity" class="annotation" fill="#000000" font-family="MS Shell Dlg 2" font-size="36" id="1NhS" x="60" y="680">
07
</text>
<text baseline-shift="0%" cb-classname="GraphicTextEntity" class="annotation" fill="#000000" font-family="MS Shell Dlg 2" font-size="36" id="1Nhl" x="60" y="760">
08
</text>
<text baseline-shift="0%" cb-classname="GraphicTextEntity" class="annotation" fill="#000000" font-family="MS Shell Dlg 2" font-size="36" id="1Nh0" x="60" y="840">
09
</text>
<text baseline-shift="0%" cb-classname="GraphicTextEntity" class="annotation" fill="#000000" font-family="MS Shell Dlg 2" font-size="36" id="1NhK" x="60" y="920">
10
</text>
<text baseline-shift="0%" cb-classname="GraphicTextEntity" class="annotation" fill="#000000" font-family="MS Shell Dlg 2" font-size="36" id="1Nh1" x="60" y="1000">
11
</text>
<text baseline-shift="0%" cb-classname="GraphicTextEntity" class="annotation" fill="#000000" font-family="MS Shell Dlg 2" font-size="36" id="1Nhz" x="60" y="1080">
12
</text>
<text baseline-shift="0%" cb-classname="GraphicTextEntity" class="annotation" fill="#000000" font-family="MS Shell Dlg 2" font-size="36" id="1Nh9" x="60" y="1160">
13
</text>
<text baseline-shift="0%" cb-classname="GraphicTextEntity" class="annotation" fill="#000000" font-family="MS Shell Dlg 2" font-size="36" id="1Nhu" x="60" y="1240">
14
</text>
<text baseline-shift="0%" cb-classname="GraphicTextEntity" class="annotation" fill="#000000" font-family="MS Shell Dlg 2" font-size="36" id="1Nhn" x="60" y="1320">
15
</text>
<text baseline-shift="0%" cb-classname="GraphicTextEntity" class="annotation" fill="#000000" font-family="MS Shell Dlg 2" font-size="36" id="1NhL" x="60" y="1400">
16
</text>
<text baseline-shift="0%" cb-classname="GraphicTextEntity" class="annotation" fill="#000000" font-family="MS Shell Dlg 2" font-size="36" id="1NmS" x="60" y="1480">
17
</text>
<text baseline-shift="0%" cb-classname="GraphicTextEntity" class="annotation" fill="#000000" font-family="MS Shell Dlg 2" font-size="36" id="1Nml" x="60" y="1560">
18
</text>
<text baseline-shift="0%" cb-classname="GraphicTextEntity" class="annotation" fill="#000000" font-family="MS Shell Dlg 2" font-size="36" id="1Nm0" x="60" y="1640">
19
</text>
<text baseline-shift="0%" cb-classname="GraphicTextEntity" class="annotation" fill="#000000" font-family="MS Shell Dlg 2" font-size="36" id="1NmK" x="60" y="1720">
20
</text>
<text baseline-shift="0%" cb-classname="GraphicTextEntity" class="annotation" fill="#000000" font-family="MS Shell Dlg 2" font-size="36" id="1Nm1" x="60" y="1800">
21
</text>
<text baseline-shift="0%" cb-classname="GraphicTextEntity" class="annotation" fill="#000000" font-family="MS Shell Dlg 2" font-size="36" id="1Nmz" x="60" y="1880">
22
</text>
<text baseline-shift="0%" cb-classname="GraphicTextEntity" class="annotation" fill="#000000" font-family="MS Shell Dlg 2" font-size="36" id="1Nm9" x="60" y="1960">
23
</text>
<text baseline-shift="0%" cb-classname="GraphicTextEntity" class="annotation" fill="#000000" font-family="MS Shell Dlg 2" font-size="36" id="1Nmu" x="60" y="2040">
24
</text>
<text baseline-shift="0%" cb-classname="GraphicTextEntity" class="annotation" fill="#000000" font-family="MS Shell Dlg 2" font-size="36" id="1Nmn" x="60" y="2120">
25
</text>
<text baseline-shift="0%" cb-classname="GraphicTextEntity" class="annotation" fill="#000000" font-family="MS Shell Dlg 2" font-size="36" id="1NmL" x="60" y="2200">
26
</text>
<text baseline-shift="0%" cb-classname="GraphicTextEntity" class="annotation" fill="#000000" font-family="MS Shell Dlg 2" font-size="36" id="1NDS" x="60" y="2280">
27
</text>
<text baseline-shift="0%" cb-classname="GraphicTextEntity" class="annotation" fill="#000000" font-family="MS Shell Dlg 2" font-size="36" id="1NDl" x="60" y="2360">
28
</text>
<text baseline-shift="0%" cb-classname="GraphicTextEntity" class="annotation" fill="#000000" font-family="MS Shell Dlg 2" font-size="36" id="1ND0" x="60" y="2440">
29
</text>
<text baseline-shift="0%" cb-classname="GraphicTextEntity" class="annotation" fill="#000000" font-family="MS Shell Dlg 2" font-size="36" id="1NDK" x="60" y="2520">
30
</text>
<text baseline-shift="0%" cb-classname="GraphicTextEntity" class="annotation" fill="#000000" font-family="MS Shell Dlg 2" font-size="36" id="1ND1" x="60" y="2600">
31
</text>
<text baseline-shift="0%" cb-classname="GraphicTextEntity" class="annotation" fill="#000000" font-family="MS Shell Dlg 2" font-size="36" id="1NDz" x="60" y="2680">
32
</text>
<text baseline-shift="0%" cb-classname="GraphicTextEntity" class="annotation" fill="#000000" font-family="MS Shell Dlg 2" font-size="36" id="1ND9" x="60" y="2760">
33
</text>
<text baseline-shift="0%" cb-classname="GraphicTextEntity" class="annotation" fill="#000000" font-family="MS Shell Dlg 2" font-size="36" id="1NDu" x="60" y="2840">
34
</text>
<text baseline-shift="0%" cb-classname="GraphicTextEntity" class="annotation" fill="#000000" font-family="MS Shell Dlg 2" font-size="36" id="1NDn" x="60" y="2920">
35
</text>
<text baseline-shift="0%" cb-classname="GraphicTextEntity" class="annotation" fill="#000000" font-family="MS Shell Dlg 2" font-size="36" id="1NDL" x="60" y="3000">
36
</text>
<text baseline-shift="0%" cb-classname="GraphicTextEntity" class="annotation" fill="#000000" font-family="MS Shell Dlg 2" font-size="36" id="1N6S" x="60" y="3080">
37
</text>
<text baseline-shift="0%" cb-classname="GraphicTextEntity" class="annotation" fill="#000000" font-family="MS Shell Dlg 2" font-size="36" id="1N6l" x="60" y="3160">
38
</text>
<text baseline-shift="0%" cb-classname="GraphicTextEntity" class="annotation" fill="#000000" font-family="MS Shell Dlg 2" font-size="36" id="1N60" x="60" y="3240">
39
</text>
<g cb-classname="DynamicText" cb-labeled="false" cb-source="1c-gbdx1KA-nk8WD69dD0" id="1N6K">
<text baseline-shift="-50%" cb-classname="GraphicTextEntity" class="frame" font-size="24" id="1N61" text-anchor="start" x="4530" y="3338">

</text>
</g>
</g>
</svg>